lab3/simulation/qsim/lab3.msim.vcd
$comment
	File created using the following command:
		vcd file lab3.msim.vcd -direction
$end
$date
	Thu Apr 25 13:19:44 2024
$end
$version
	ModelSim Version 10.5b
$end
$timescale
	1ps
$end

$scope module lab3_vhd_vec_tst $end
$var wire 1 ! HEX0a $end
$var wire 1 " HEX0b $end
$var wire 1 # HEX0c $end
$var wire 1 $ HEX0d $end
$var wire 1 % HEX0e $end
$var wire 1 & HEX0f $end
$var wire 1 ' HEX0g $end
$var wire 1 ( HEX1a $end
$var wire 1 ) HEX1b $end
$var wire 1 * HEX1c $end
$var wire 1 + HEX1d $end
$var wire 1 , HEX1e $end
$var wire 1 - HEX1f $end
$var wire 1 . HEX1g $end
$var wire 1 / HEX4a $end
$var wire 1 0 HEX4b $end
$var wire 1 1 HEX4c $end
$var wire 1 2 HEX4d $end
$var wire 1 3 HEX4e $end
$var wire 1 4 HEX4f $end
$var wire 1 5 HEX4g $end
$var wire 1 6 HEX5a $end
$var wire 1 7 HEX5b $end
$var wire 1 8 HEX5c $end
$var wire 1 9 HEX5d $end
$var wire 1 : HEX5e $end
$var wire 1 ; HEX5f $end
$var wire 1 < HEX5g $end
$var wire 1 = LED0 $end
$var wire 1 > LED1 $end
$var wire 1 ? LED2 $end
$var wire 1 @ LED3 $end
$var wire 1 A LED4 $end
$var wire 1 B LED5 $end
$var wire 1 C LED6 $end
$var wire 1 D LED7 $end
$var wire 1 E LED8 $end
$var wire 1 F PB0 $end
$var wire 1 G PB1 $end
$var wire 1 H SW0 $end
$var wire 1 I SW1 $end
$var wire 1 J SW2 $end
$var wire 1 K SW3 $end
$var wire 1 L SW4 $end
$var wire 1 M SW5 $end
$var wire 1 N SW6 $end
$var wire 1 O SW7 $end

$scope module i1 $end
$var wire 1 P gnd $end
$var wire 1 Q vcc $end
$var wire 1 R unknown $end
$var wire 1 S devoe $end
$var wire 1 T devclrn $end
$var wire 1 U devpor $end
$var wire 1 V ww_devoe $end
$var wire 1 W ww_devclrn $end
$var wire 1 X ww_devpor $end
$var wire 1 Y ww_HEX0a $end
$var wire 1 Z ww_SW0 $end
$var wire 1 [ ww_SW1 $end
$var wire 1 \ ww_SW2 $end
$var wire 1 ] ww_SW3 $end
$var wire 1 ^ ww_PB0 $end
$var wire 1 _ ww_HEX0b $end
$var wire 1 ` ww_HEX0c $end
$var wire 1 a ww_HEX0d $end
$var wire 1 b ww_HEX0e $end
$var wire 1 c ww_HEX0f $end
$var wire 1 d ww_HEX0g $end
$var wire 1 e ww_HEX1a $end
$var wire 1 f ww_SW4 $end
$var wire 1 g ww_SW5 $end
$var wire 1 h ww_SW6 $end
$var wire 1 i ww_SW7 $end
$var wire 1 j ww_HEX1b $end
$var wire 1 k ww_HEX1c $end
$var wire 1 l ww_HEX1d $end
$var wire 1 m ww_HEX1e $end
$var wire 1 n ww_HEX1f $end
$var wire 1 o ww_HEX1g $end
$var wire 1 p ww_HEX4a $end
$var wire 1 q ww_PB1 $end
$var wire 1 r ww_HEX4b $end
$var wire 1 s ww_HEX4c $end
$var wire 1 t ww_HEX4d $end
$var wire 1 u ww_HEX4e $end
$var wire 1 v ww_HEX4f $end
$var wire 1 w ww_HEX4g $end
$var wire 1 x ww_HEX5a $end
$var wire 1 y ww_HEX5b $end
$var wire 1 z ww_HEX5c $end
$var wire 1 { ww_HEX5d $end
$var wire 1 | ww_HEX5e $end
$var wire 1 } ww_HEX5f $end
$var wire 1 ~ ww_HEX5g $end
$var wire 1 !! ww_LED0 $end
$var wire 1 "! ww_LED1 $end
$var wire 1 #! ww_LED2 $end
$var wire 1 $! ww_LED3 $end
$var wire 1 %! ww_LED4 $end
$var wire 1 &! ww_LED5 $end
$var wire 1 '! ww_LED6 $end
$var wire 1 (! ww_LED7 $end
$var wire 1 )! ww_LED8 $end
$var wire 1 *! \~QUARTUS_CREATED_ADC1~_CHSEL_bus\ [4] $end
$var wire 1 +! \~QUARTUS_CREATED_ADC1~_CHSEL_bus\ [3] $end
$var wire 1 ,! \~QUARTUS_CREATED_ADC1~_CHSEL_bus\ [2] $end
$var wire 1 -! \~QUARTUS_CREATED_ADC1~_CHSEL_bus\ [1] $end
$var wire 1 .! \~QUARTUS_CREATED_ADC1~_CHSEL_bus\ [0] $end
$var wire 1 /! \~QUARTUS_CREATED_ADC2~_CHSEL_bus\ [4] $end
$var wire 1 0! \~QUARTUS_CREATED_ADC2~_CHSEL_bus\ [3] $end
$var wire 1 1! \~QUARTUS_CREATED_ADC2~_CHSEL_bus\ [2] $end
$var wire 1 2! \~QUARTUS_CREATED_ADC2~_CHSEL_bus\ [1] $end
$var wire 1 3! \~QUARTUS_CREATED_ADC2~_CHSEL_bus\ [0] $end
$var wire 1 4! \inst30~clkctrl_INCLK_bus\ [3] $end
$var wire 1 5! \inst30~clkctrl_INCLK_bus\ [2] $end
$var wire 1 6! \inst30~clkctrl_INCLK_bus\ [1] $end
$var wire 1 7! \inst30~clkctrl_INCLK_bus\ [0] $end
$var wire 1 8! \~QUARTUS_CREATED_GND~I_combout\ $end
$var wire 1 9! \~QUARTUS_CREATED_UNVM~~busy\ $end
$var wire 1 :! \~QUARTUS_CREATED_ADC1~~eoc\ $end
$var wire 1 ;! \~QUARTUS_CREATED_ADC2~~eoc\ $end
$var wire 1 <! \HEX0a~output_o\ $end
$var wire 1 =! \HEX0b~output_o\ $end
$var wire 1 >! \HEX0c~output_o\ $end
$var wire 1 ?! \HEX0d~output_o\ $end
$var wire 1 @! \HEX0e~output_o\ $end
$var wire 1 A! \HEX0f~output_o\ $end
$var wire 1 B! \HEX0g~output_o\ $end
$var wire 1 C! \HEX1a~output_o\ $end
$var wire 1 D! \HEX1b~output_o\ $end
$var wire 1 E! \HEX1c~output_o\ $end
$var wire 1 F! \HEX1d~output_o\ $end
$var wire 1 G! \HEX1e~output_o\ $end
$var wire 1 H! \HEX1f~output_o\ $end
$var wire 1 I! \HEX1g~output_o\ $end
$var wire 1 J! \HEX4a~output_o\ $end
$var wire 1 K! \HEX4b~output_o\ $end
$var wire 1 L! \HEX4c~output_o\ $end
$var wire 1 M! \HEX4d~output_o\ $end
$var wire 1 N! \HEX4e~output_o\ $end
$var wire 1 O! \HEX4f~output_o\ $end
$var wire 1 P! \HEX4g~output_o\ $end
$var wire 1 Q! \HEX5a~output_o\ $end
$var wire 1 R! \HEX5b~output_o\ $end
$var wire 1 S! \HEX5c~output_o\ $end
$var wire 1 T! \HEX5d~output_o\ $end
$var wire 1 U! \HEX5e~output_o\ $end
$var wire 1 V! \HEX5f~output_o\ $end
$var wire 1 W! \HEX5g~output_o\ $end
$var wire 1 X! \LED0~output_o\ $end
$var wire 1 Y! \LED1~output_o\ $end
$var wire 1 Z! \LED2~output_o\ $end
$var wire 1 [! \LED3~output_o\ $end
$var wire 1 \! \LED4~output_o\ $end
$var wire 1 ]! \LED5~output_o\ $end
$var wire 1 ^! \LED6~output_o\ $end
$var wire 1 _! \LED7~output_o\ $end
$var wire 1 `! \LED8~output_o\ $end
$var wire 1 a! \PB0~input_o\ $end
$var wire 1 b! \SW3~input_o\ $end
$var wire 1 c! \inst11|inst3~feeder_combout\ $end
$var wire 1 d! \inst11|inst3~q\ $end
$var wire 1 e! \SW1~input_o\ $end
$var wire 1 f! \inst11|inst1~q\ $end
$var wire 1 g! \SW0~input_o\ $end
$var wire 1 h! \inst11|inst~feeder_combout\ $end
$var wire 1 i! \inst11|inst~q\ $end
$var wire 1 j! \SW2~input_o\ $end
$var wire 1 k! \inst11|inst2~q\ $end
$var wire 1 l! \inst15|a~0_combout\ $end
$var wire 1 m! \inst15|b~0_combout\ $end
$var wire 1 n! \inst15|c~0_combout\ $end
$var wire 1 o! \inst15|d~combout\ $end
$var wire 1 p! \inst15|e~0_combout\ $end
$var wire 1 q! \inst15|f~0_combout\ $end
$var wire 1 r! \inst15|g~0_combout\ $end
$var wire 1 s! \SW7~input_o\ $end
$var wire 1 t! \inst10|inst3~feeder_combout\ $end
$var wire 1 u! \inst10|inst3~q\ $end
$var wire 1 v! \SW4~input_o\ $end
$var wire 1 w! \inst10|inst~q\ $end
$var wire 1 x! \SW5~input_o\ $end
$var wire 1 y! \inst10|inst1~feeder_combout\ $end
$var wire 1 z! \inst10|inst1~q\ $end
$var wire 1 {! \SW6~input_o\ $end
$var wire 1 |! \inst10|inst2~feeder_combout\ $end
$var wire 1 }! \inst10|inst2~q\ $end
$var wire 1 ~! \inst16|a~0_combout\ $end
$var wire 1 !" \inst16|b~0_combout\ $end
$var wire 1 "" \inst16|c~0_combout\ $end
$var wire 1 #" \inst16|d~combout\ $end
$var wire 1 $" \inst16|e~0_combout\ $end
$var wire 1 %" \inst16|f~0_combout\ $end
$var wire 1 &" \inst16|g~0_combout\ $end
$var wire 1 '" \PB1~input_o\ $end
$var wire 1 (" \inst30~combout\ $end
$var wire 1 )" \inst30~clkctrl_outclk\ $end
$var wire 1 *" \inst1|inst~q\ $end
$var wire 1 +" \inst42~combout\ $end
$var wire 1 ," \inst33~0_combout\ $end
$var wire 1 -" \inst33~q\ $end
$var wire 1 ." \inst1|inst8|inst2~0_combout\ $end
$var wire 1 /" \inst1|inst1~q\ $end
$var wire 1 0" \inst1|inst9|inst2~0_combout\ $end
$var wire 1 1" \inst1|inst2~q\ $end
$var wire 1 2" \inst1|inst10|inst2~0_combout\ $end
$var wire 1 3" \inst1|inst3~q\ $end
$var wire 1 4" \inst1|inst11|inst2~0_combout\ $end
$var wire 1 5" \inst1|inst4~q\ $end
$var wire 1 6" \inst1|inst12|inst2~0_combout\ $end
$var wire 1 7" \inst1|inst5~q\ $end
$var wire 1 8" \inst1|inst13|inst2~0_combout\ $end
$var wire 1 9" \inst1|inst6~q\ $end
$var wire 1 :" \inst1|inst14|inst2~0_combout\ $end
$var wire 1 ;" \inst1|inst7~feeder_combout\ $end
$var wire 1 <" \inst1|inst7~q\ $end
$var wire 1 =" \inst|inst30~q\ $end
$var wire 1 >" \inst|inst32~feeder_combout\ $end
$var wire 1 ?" \inst|inst32~q\ $end
$var wire 1 @" \inst|inst5~q\ $end
$var wire 1 A" \inst|inst6~q\ $end
$var wire 1 B" \inst13|a~0_combout\ $end
$var wire 1 C" \inst13|b~0_combout\ $end
$var wire 1 D" \inst13|c~0_combout\ $end
$var wire 1 E" \inst13|d~combout\ $end
$var wire 1 F" \inst13|e~0_combout\ $end
$var wire 1 G" \inst13|f~0_combout\ $end
$var wire 1 H" \inst13|g~0_combout\ $end
$var wire 1 I" \inst|inst7~feeder_combout\ $end
$var wire 1 J" \inst|inst7~q\ $end
$var wire 1 K" \inst|inst8~feeder_combout\ $end
$var wire 1 L" \inst|inst8~q\ $end
$var wire 1 M" \inst|inst9~feeder_combout\ $end
$var wire 1 N" \inst|inst9~q\ $end
$var wire 1 O" \inst|inst10~feeder_combout\ $end
$var wire 1 P" \inst|inst10~q\ $end
$var wire 1 Q" \inst14|a~0_combout\ $end
$var wire 1 R" \inst14|b~0_combout\ $end
$var wire 1 S" \inst14|c~0_combout\ $end
$var wire 1 T" \inst14|d~combout\ $end
$var wire 1 U" \inst14|e~0_combout\ $end
$var wire 1 V" \inst14|f~0_combout\ $end
$var wire 1 W" \inst14|g~0_combout\ $end
$var wire 1 X" \inst16|ALT_INV_a~0_combout\ $end
$var wire 1 Y" \inst15|ALT_INV_g~0_combout\ $end
$var wire 1 Z" \inst15|ALT_INV_f~0_combout\ $end
$var wire 1 [" \inst15|ALT_INV_e~0_combout\ $end
$var wire 1 \" \inst15|ALT_INV_c~0_combout\ $end
$var wire 1 ]" \inst15|ALT_INV_b~0_combout\ $end
$var wire 1 ^" \inst15|ALT_INV_a~0_combout\ $end
$var wire 1 _" \ALT_INV_PB1~input_o\ $end
$var wire 1 `" \ALT_INV_PB0~input_o\ $end
$var wire 1 a" \inst14|ALT_INV_g~0_combout\ $end
$var wire 1 b" \inst14|ALT_INV_f~0_combout\ $end
$var wire 1 c" \inst14|ALT_INV_e~0_combout\ $end
$var wire 1 d" \inst14|ALT_INV_c~0_combout\ $end
$var wire 1 e" \inst14|ALT_INV_b~0_combout\ $end
$var wire 1 f" \inst14|ALT_INV_a~0_combout\ $end
$var wire 1 g" \inst13|ALT_INV_g~0_combout\ $end
$var wire 1 h" \inst13|ALT_INV_f~0_combout\ $end
$var wire 1 i" \inst13|ALT_INV_e~0_combout\ $end
$var wire 1 j" \inst13|ALT_INV_c~0_combout\ $end
$var wire 1 k" \inst13|ALT_INV_b~0_combout\ $end
$var wire 1 l" \inst13|ALT_INV_a~0_combout\ $end
$var wire 1 m" \inst16|ALT_INV_g~0_combout\ $end
$var wire 1 n" \inst16|ALT_INV_f~0_combout\ $end
$var wire 1 o" \inst16|ALT_INV_e~0_combout\ $end
$var wire 1 p" \inst16|ALT_INV_c~0_combout\ $end
$var wire 1 q" \inst16|ALT_INV_b~0_combout\ $end
$upscope $end
$upscope $end
$enddefinitions $end
#0
$dumpvars
0!
0"
0#
0$
0%
0&
1'
0(
0)
0*
0+
0,
0-
1.
0/
00
01
02
03
04
15
06
07
08
09
0:
0;
1<
0=
0>
0?
0@
0A
0B
0C
0D
0E
0F
0G
1H
0I
0J
1K
1L
0M
0N
1O
0P
1Q
xR
1S
1T
1U
1V
1W
1X
0Y
1Z
0[
0\
1]
0^
0_
0`
0a
0b
0c
1d
0e
1f
0g
0h
1i
0j
0k
0l
0m
0n
1o
0p
0q
0r
0s
0t
0u
0v
1w
0x
0y
0z
0{
0|
0}
1~
0!!
0"!
0#!
0$!
0%!
0&!
0'!
0(!
0)!
08!
z9!
z:!
z;!
0<!
0=!
0>!
0?!
0@!
0A!
1B!
0C!
0D!
0E!
0F!
0G!
0H!
1I!
0J!
0K!
0L!
0M!
0N!
0O!
1P!
0Q!
0R!
0S!
0T!
0U!
0V!
1W!
0X!
0Y!
0Z!
0[!
0\!
0]!
0^!
0_!
0`!
0a!
1b!
1c!
0d!
0e!
0f!
1g!
1h!
0i!
0j!
0k!
1l!
1m!
1n!
0o!
1p!
1q!
0r!
1s!
1t!
0u!
1v!
0w!
0x!
0y!
0z!
0{!
0|!
0}!
1~!
1!"
1""
0#"
1$"
1%"
0&"
0'"
1("
1)"
0*"
1+"
1,"
0-"
0."
0/"
00"
01"
12"
03"
14"
05"
06"
07"
08"
09"
1:"
1;"
0<"
0="
0>"
0?"
0@"
0A"
1B"
1C"
1D"
0E"
1F"
1G"
0H"
0I"
0J"
0K"
0L"
0M"
0N"
0O"
0P"
1Q"
1R"
1S"
0T"
1U"
1V"
0W"
0X"
1Y"
0Z"
0["
0\"
0]"
0^"
1_"
1`"
1a"
0b"
0c"
0d"
0e"
0f"
1g"
0h"
0i"
0j"
0k"
0l"
1m"
0n"
0o"
0p"
0q"
14!
15!
16!
17!
0*!
0+!
0,!
0-!
0.!
0/!
00!
01!
02!
03!
$end
#1500000
1G
1q
1'"
0_"
0+"
#3000000
0G
0q
0'"
1_"
1+"
1-"
0,"
02"
04"
0:"
0;"
#4500000
1G
1q
1'"
0_"
#6000000
0G
0q
0'"
1_"
#7500000
1G
1q
1'"
0_"
#9000000
0G
0q
0'"
1_"
#10500000
1G
1q
1'"
0_"
#12000000
0G
0q
0'"
1_"
#13500000
1G
1q
1'"
0_"
#15000000
0G
0q
0'"
1_"
#16500000
1G
1q
1'"
0_"
#18000000
0G
0q
0'"
1_"
#19500000
1G
1q
1'"
0_"
#21000000
0G
0q
0'"
1_"
#22500000
1G
1q
1'"
0_"
#24000000
0G
0q
0'"
1_"
#25500000
1G
1q
1'"
0_"
#27000000
0G
0q
0'"
1_"
#28500000
1G
1q
1'"
0_"
#30000000
0G
1F
0q
1^
1a!
0'"
1_"
0`"
0+"
#31500000
1G
1q
1'"
0_"
0("
07!
0)"
#33000000
0G
0q
0'"
1_"
1("
17!
1)"
1*"
1."
#34500000
1G
1q
1'"
0_"
0("
07!
0)"
#36000000
0G
0q
0'"
1_"
1("
17!
1)"
1/"
10"
#37500000
1G
1q
1'"
0_"
0("
07!
0)"
#39000000
0G
0q
0'"
1_"
1("
17!
1)"
11"
12"
#40500000
1G
1q
1'"
0_"
0("
07!
0)"
#42000000
0G
0q
0'"
1_"
1("
17!
1)"
13"
14"
#43500000
1G
1q
1'"
0_"
0("
07!
0)"
#45000000
0G
0q
0'"
1_"
1("
17!
1)"
15"
16"
#46500000
1G
1q
1'"
0_"
0("
07!
0)"
#48000000
0G
0q
0'"
1_"
1("
17!
1)"
17"
18"
#49500000
1G
1q
1'"
0_"
0("
07!
0)"
#51000000
0G
0q
0'"
1_"
1("
17!
1)"
19"
1:"
1;"
#52500000
1G
1q
1'"
0_"
0("
07!
0)"
#54000000
0G
0q
0'"
1_"
1("
17!
1)"
1<"
1`!
1)!
1E
#55500000
1G
1q
1'"
0_"
0("
07!
0)"
#57000000
0G
0q
0'"
1_"
1("
1="
17!
1X!
1>"
0B"
1E"
0F"
0G"
1h"
1i"
1l"
1!!
1M!
1)"
1=
1J!
1N!
1O!
1t
1p
1u
1v
12
1/
13
14
#58500000
1G
1q
1'"
0_"
0("
07!
0)"
#60000000
0G
0F
0q
0^
0a!
0'"
1_"
1`"
1("
1+"
1d!
1i!
1u!
1w!
1?"
17!
0-"
1Y!
1B"
0E"
1H"
0$"
1&"
0p!
1r!
1,"
0."
00"
06"
08"
0Y"
1["
0m"
1o"
0g"
0l"
1"!
0M!
1)"
1>
0J!
0P!
1G!
0I!
1@!
0B!
0t
0/"
01"
07"
09"
0p
0w
1m
0o
1b
0d
02
0/
05
1,
0.
1%
0'
#61500000
1G
1q
1'"
0_"
0+"
#63000000
0G
0q
0'"
1_"
1+"
1@"
1-"
1Z!
1E"
0H"
0,"
1."
02"
16"
0:"
1g"
1#!
1M!
1?
1P!
0;"
1t
1w
12
15
#64500000
1G
1q
1'"
0_"
#66000000
0G
0q
0'"
1_"
1A"
1[!
0C"
0D"
1F"
1G"
1H"
1I"
0g"
0h"
0i"
1j"
1k"
1$!
1@
1K!
1L!
0N!
0O!
0P!
1r
1s
0u
0v
0w
10
11
03
04
05
#67500000
1G
1q
1'"
0_"
#69000000
0G
0q
0'"
1_"
1J"
1\!
1K"
0Q"
1T"
0U"
0V"
1b"
1c"
1f"
1%!
1T!
1A
1Q!
1U!
1V!
1{
1x
1|
1}
19
16
1:
1;
#70500000
1G
1q
1'"
0_"
#72000000
0G
0q
0'"
1_"
1L"
1]!
1M"
1Q"
0T"
1W"
0a"
0f"
1&!
0T!
1B
0Q!
0W!
0{
0x
0~
09
06
0<
#73500000
1G
1q
1'"
0_"
#75000000
0G
0q
0'"
1_"
1N"
1^!
1O"
1T"
0W"
1a"
1'!
1T!
1C
1W!
1{
1~
19
1<
#76500000
1G
1q
1'"
0_"
#78000000
0G
0q
0'"
1_"
1P"
1_!
0R"
0S"
1U"
1V"
1W"
0a"
0b"
0c"
1d"
1e"
1(!
1D
1R!
1S!
0U!
0V!
0W!
1y
1z
0|
0}
0~
17
18
0:
0;
0<
#79500000
1G
1q
1'"
0_"
#81000000
0G
0q
0'"
1_"
#82500000
1G
1q
1'"
0_"
#84000000
0G
0q
0'"
1_"
#85500000
1G
1q
1'"
0_"
#87000000
0G
0q
0'"
1_"
#88500000
1G
1q
1'"
0_"
#90000000
0G
1F
0q
1^
1a!
0'"
1_"
0`"
0+"
#91500000
1G
1q
1'"
0_"
0("
07!
0)"
#93000000
0G
0q
0'"
1_"
1("
17!
1)"
1/"
03"
17"
0<"
0`!
18"
04"
10"
0)!
0E
#94500000
1G
1q
1'"
0_"
0("
07!
0)"
#96000000
0G
0q
0'"
1_"
1("
0="
17!
0X!
0>"
0E"
0!!
0M!
1)"
0=
0t
11"
05"
19"
02
1:"
06"
12"
1;"
#97500000
1G
1q
1'"
0_"
0("
07!
0)"
#99000000
0G
0q
0'"
1_"
1("
0?"
17!
0Y!
0H"
1g"
0"!
1)"
0>
1P!
13"
07"
1<"
1w
15
1`!
08"
14"
1)!
1E
