MicroProcessador/simulation/qsim/Projeto_Final.msim.vcd
$comment
	File created using the following command:
		vcd file Projeto_Final.msim.vcd -direction
$end
$date
	Mon May 06 03:24:55 2024
$end
$version
	ModelSim Version 10.5b
$end
$timescale
	1ps
$end

$scope module sum8bit_vhd_vec_tst $end
$var wire 1 ! A [7] $end
$var wire 1 " A [6] $end
$var wire 1 # A [5] $end
$var wire 1 $ A [4] $end
$var wire 1 % A [3] $end
$var wire 1 & A [2] $end
$var wire 1 ' A [1] $end
$var wire 1 ( A [0] $end
$var wire 1 ) A_S $end
$var wire 1 * B [7] $end
$var wire 1 + B [6] $end
$var wire 1 , B [5] $end
$var wire 1 - B [4] $end
$var wire 1 . B [3] $end
$var wire 1 / B [2] $end
$var wire 1 0 B [1] $end
$var wire 1 1 B [0] $end
$var wire 1 2 CO $end
$var wire 1 3 O [7] $end
$var wire 1 4 O [6] $end
$var wire 1 5 O [5] $end
$var wire 1 6 O [4] $end
$var wire 1 7 O [3] $end
$var wire 1 8 O [2] $end
$var wire 1 9 O [1] $end
$var wire 1 : O [0] $end

$scope module i1 $end
$var wire 1 ; gnd $end
$var wire 1 < vcc $end
$var wire 1 = unknown $end
$var wire 1 > devoe $end
$var wire 1 ? devclrn $end
$var wire 1 @ devpor $end
$var wire 1 A ww_devoe $end
$var wire 1 B ww_devclrn $end
$var wire 1 C ww_devpor $end
$var wire 1 D ww_A_S $end
$var wire 1 E ww_A [7] $end
$var wire 1 F ww_A [6] $end
$var wire 1 G ww_A [5] $end
$var wire 1 H ww_A [4] $end
$var wire 1 I ww_A [3] $end
$var wire 1 J ww_A [2] $end
$var wire 1 K ww_A [1] $end
$var wire 1 L ww_A [0] $end
$var wire 1 M ww_B [7] $end
$var wire 1 N ww_B [6] $end
$var wire 1 O ww_B [5] $end
$var wire 1 P ww_B [4] $end
$var wire 1 Q ww_B [3] $end
$var wire 1 R ww_B [2] $end
$var wire 1 S ww_B [1] $end
$var wire 1 T ww_B [0] $end
$var wire 1 U ww_O [7] $end
$var wire 1 V ww_O [6] $end
$var wire 1 W ww_O [5] $end
$var wire 1 X ww_O [4] $end
$var wire 1 Y ww_O [3] $end
$var wire 1 Z ww_O [2] $end
$var wire 1 [ ww_O [1] $end
$var wire 1 \ ww_O [0] $end
$var wire 1 ] ww_CO $end
$var wire 1 ^ \~QUARTUS_CREATED_ADC1~_CHSEL_bus\ [4] $end
$var wire 1 _ \~QUARTUS_CREATED_ADC1~_CHSEL_bus\ [3] $end
$var wire 1 ` \~QUARTUS_CREATED_ADC1~_CHSEL_bus\ [2] $end
$var wire 1 a \~QUARTUS_CREATED_ADC1~_CHSEL_bus\ [1] $end
$var wire 1 b \~QUARTUS_CREATED_ADC1~_CHSEL_bus\ [0] $end
$var wire 1 c \~QUARTUS_CREATED_ADC2~_CHSEL_bus\ [4] $end
$var wire 1 d \~QUARTUS_CREATED_ADC2~_CHSEL_bus\ [3] $end
$var wire 1 e \~QUARTUS_CREATED_ADC2~_CHSEL_bus\ [2] $end
$var wire 1 f \~QUARTUS_CREATED_ADC2~_CHSEL_bus\ [1] $end
$var wire 1 g \~QUARTUS_CREATED_ADC2~_CHSEL_bus\ [0] $end
$var wire 1 h \~QUARTUS_CREATED_GND~I_combout\ $end
$var wire 1 i \~QUARTUS_CREATED_UNVM~~busy\ $end
$var wire 1 j \~QUARTUS_CREATED_ADC1~~eoc\ $end
$var wire 1 k \~QUARTUS_CREATED_ADC2~~eoc\ $end
$var wire 1 l \O[0]~output_o\ $end
$var wire 1 m \O[1]~output_o\ $end
$var wire 1 n \O[2]~output_o\ $end
$var wire 1 o \O[3]~output_o\ $end
$var wire 1 p \O[4]~output_o\ $end
$var wire 1 q \O[5]~output_o\ $end
$var wire 1 r \O[6]~output_o\ $end
$var wire 1 s \O[7]~output_o\ $end
$var wire 1 t \CO~output_o\ $end
$var wire 1 u \A[0]~input_o\ $end
$var wire 1 v \B[0]~input_o\ $end
$var wire 1 w \FA0|S2|O~0_combout\ $end
$var wire 1 x \A_S~input_o\ $end
$var wire 1 y \B[1]~input_o\ $end
$var wire 1 z \comb~0_combout\ $end
$var wire 1 { \A[1]~input_o\ $end
$var wire 1 | \FA0|S2|CO~combout\ $end
$var wire 1 } \FA0|S1|CO~combout\ $end
$var wire 1 ~ \FA1|S2|O~combout\ $end
$var wire 1 !! \A[2]~input_o\ $end
$var wire 1 "! \B[2]~input_o\ $end
$var wire 1 #! \FA1|CO~0_combout\ $end
$var wire 1 $! \FA2|S2|O~0_combout\ $end
$var wire 1 %! \A[3]~input_o\ $end
$var wire 1 &! \FA2|CO~0_combout\ $end
$var wire 1 '! \B[3]~input_o\ $end
$var wire 1 (! \FA3|S2|O~0_combout\ $end
$var wire 1 )! \A[4]~input_o\ $end
$var wire 1 *! \B[4]~input_o\ $end
$var wire 1 +! \FA3|CO~0_combout\ $end
$var wire 1 ,! \FA4|S2|O~0_combout\ $end
$var wire 1 -! \B[5]~input_o\ $end
$var wire 1 .! \FA4|CO~0_combout\ $end
$var wire 1 /! \A[5]~input_o\ $end
$var wire 1 0! \FA5|S2|O~0_combout\ $end
$var wire 1 1! \A[6]~input_o\ $end
$var wire 1 2! \B[6]~input_o\ $end
$var wire 1 3! \FA5|CO~0_combout\ $end
$var wire 1 4! \FA6|S2|O~0_combout\ $end
$var wire 1 5! \B[7]~input_o\ $end
$var wire 1 6! \A[7]~input_o\ $end
$var wire 1 7! \FA6|CO~0_combout\ $end
$var wire 1 8! \FA7|S2|O~0_combout\ $end
$var wire 1 9! \FA7|CO~0_combout\ $end
$var wire 1 :! \FA7|S2|ALT_INV_O~0_combout\ $end
$var wire 1 ;! \FA6|S2|ALT_INV_O~0_combout\ $end
$var wire 1 <! \FA5|S2|ALT_INV_O~0_combout\ $end
$var wire 1 =! \FA4|S2|ALT_INV_O~0_combout\ $end
$var wire 1 >! \FA3|S2|ALT_INV_O~0_combout\ $end
$var wire 1 ?! \FA2|S2|ALT_INV_O~0_combout\ $end
$var wire 1 @! \FA1|S2|ALT_INV_O~combout\ $end
$upscope $end
$upscope $end
$enddefinitions $end
#0
$dumpvars
1)
02
0;
1<
x=
1>
1?
1@
1A
1B
1C
1D
0]
0h
zi
zj
zk
1l
0m
1n
0o
0p
0q
0r
0s
0t
0u
1v
1w
1x
0y
1z
0{
1|
0}
1~
0!!
1"!
0#!
0$!
0%!
0&!
0'!
1(!
0)!
0*!
0+!
1,!
0-!
0.!
0/!
10!
01!
02!
03!
14!
05!
06!
07!
18!
09!
0:!
0;!
0<!
0=!
0>!
1?!
0@!
0!
0"
0#
0$
0%
0&
0'
0(
0*
0+
0,
0-
0.
1/
00
11
0E
0F
0G
0H
0I
0J
0K
0L
0M
0N
0O
0P
0Q
1R
0S
1T
0U
0V
0W
0X
0Y
1Z
0[
1\
0^
0_
0`
0a
0b
0c
0d
0e
0f
0g
03
04
05
06
07
18
09
1:
$end
#1000
1(
1L
1u
0w
1}
0l
0~
1@!
0\
0:
1m
1[
19
#2000
0(
1'
0L
1K
1{
0u
1w
0}
1~
1#!
0@!
1l
1$!
1&!
0~
0#!
0m
1@!
0?!
1\
0$!
0&!
0(!
0[
1:
0n
1m
1>!
1?!
09
1(!
0Z
1[
1n
1o
0>!
19
08
1Z
1Y
0o
18
17
0Y
07
#3000
1(
1L
1u
0w
1}
0l
1~
1#!
0@!
0\
1$!
1&!
0:
0m
0?!
0(!
0[
0n
1>!
09
0Z
1o
08
1Y
17
#4000
0(
0'
1&
0L
0K
1J
1!!
0{
0u
1w
0}
0~
0#!
0$!
1?!
1@!
1l
1$!
1~
1m
1n
0@!
0?!
1\
1[
1Z
1:
0n
0m
19
18
0Z
0[
09
08
#5000
1(
0)
1L
0D
0x
1u
0w
0z
0|
0$!
0&!
1(!
1+!
0,!
00!
04!
08!
1:!
1;!
1<!
1=!
0>!
1?!
0l
1,!
1.!
0(!
0+!
1#!
1n
0o
1p
1q
1r
1s
1>!
0=!
0\
1$!
1&!
0,!
0.!
10!
13!
1Z
0Y
1X
1W
1V
1U
0:
0p
1o
0<!
1=!
0?!
18
07
16
15
14
13
14!
17!
00!
03!
1(!
1+!
0X
1Y
0n
1p
0q
0>!
1<!
0;!
17
06
1,!
1.!
04!
07!
18!
19!
0Z
1X
0W
0r
1q
0o
0:!
1;!
0=!
08
16
05
1t
08!
09!
10!
13!
0V
1W
0Y
0p
1r
0s
0<!
1:!
1]
07
15
04
0t
14!
17!
0X
1V
0U
12
1s
0q
0;!
0]
06
14
03
18!
19!
1U
0W
02
0r
0:!
05
13
1t
0V
0s
1]
04
0U
12
03
#6000
0(
1'
0L
1K
1{
0u
1w
1|
0~
1@!
1l
1~
1m
0@!
1\
1[
1:
0m
19
0[
09
#7000
1(
1L
1u
0w
0|
0l
0~
1@!
0\
0:
1m
1[
19
#8000
0(
0'
0&
1%
0L
0K
0J
1I
1%!
0!!
0{
0u
1w
1|
1~
0$!
0&!
0(!
1>!
1?!
0@!
1l
1(!
0~
0#!
0m
1n
1o
1@!
0>!
1\
1$!
0[
1Z
1Y
1:
0o
1m
0?!
09
18
17
0Y
1[
0n
19
07
0Z
08
#9000
1(
1L
1u
0w
0|
0l
1~
1#!
0@!
0\
0$!
0:
0m
1?!
0[
1n
09
1Z
18
#10000
0(
1'
1)
0L
1K
1D
1x
1{
0u
1w
0~
1z
1|
1$!
1&!
0(!
0+!
0,!
0.!
00!
03!
04!
07!
08!
09!
1:!
1;!
1<!
1=!
1>!
0?!
1@!
0t
1l
18!
14!
10!
1,!
1(!
1+!
0#!
1m
0n
1o
1p
1q
1r
1s
0>!
0=!
0<!
0;!
0:!
0]
1\
0$!
0&!
0,!
1[
0Z
1Y
1X
1W
1V
1U
02
1:
0s
0r
0q
0p
0o
1=!
1?!
19
08
17
16
15
14
13
0(!
0+!
0U
0V
0W
0X
0Y
1n
1p
1>!
07
06
05
04
03
1,!
1Z
1X
1o
0=!
18
16
1Y
0p
17
0X
06
#11000
1(
1L
1u
0w
1}
0l
1~
1#!
0@!
0\
1$!
1&!
0:
0m
0?!
1(!
1+!
0[
0n
0>!
09
0,!
0Z
0o
1=!
08
0Y
1p
07
1X
16
#12000
0(
0'
1&
0L
0K
1J
1!!
0{
0u
1w
0}
0~
0#!
0$!
1?!
1@!
1l
1$!
1~
1m
1n
0@!
0?!
1\
1[
1Z
1:
0n
0m
19
18
0Z
0[
09
08
#13000
1(
1L
1u
0w
1}
0l
0~
1@!
0\
0:
1m
1[
19
#14000
0(
1'
0L
1K
1{
0u
1w
0}
1~
1#!
0@!
1l
0$!
0~
0#!
0m
1@!
1?!
1\
1$!
0[
1:
1n
1m
0?!
09
1Z
1[
0n
19
18
0Z
08
#15000
1(
0)
1L
0D
0x
1u
0w
0z
0|
0$!
0&!
0(!
1,!
1.!
00!
04!
08!
1:!
1;!
1<!
0=!
1>!
1?!
0l
10!
13!
1(!
1#!
1n
1o
0p
1q
1r
1s
0>!
0<!
0\
1$!
1&!
14!
17!
1Z
1Y
0X
1W
1V
1U
0:
0q
0o
0;!
0?!
18
17
06
15
14
13
18!
19!
0(!
0W
0Y
0n
0r
1>!
0:!
07
05
1t
0Z
0V
0s
1o
1]
08
04
0U
1Y
12
17
03
#16000
0(
0'
0&
0%
1$
0L
0K
0J
0I
1H
1)!
0%!
0!!
0{
0u
1w
1|
1~
0$!
0&!
1(!
0,!
1=!
0>!
1?!
0@!
1l
0(!
0+!
0~
0#!
0m
1n
0o
1p
1@!
1>!
1\
1$!
1,!
0[
1Z
0Y
1X
1:
1o
1m
0=!
0?!
09
18
07
16
1Y
1[
0n
0p
19
17
0Z
0X
08
06
#17000
1(
1L
1u
0w
0|
0l
1~
1#!
0@!
0\
0$!
0:
0m
1?!
0[
1n
09
1Z
18
#18000
0(
1'
0L
1K
1{
0u
1w
1|
0~
1@!
1l
1~
1m
0@!
1\
1[
1:
0m
19
0[
09
#19000
1(
1L
1u
0w
0|
0l
0~
1@!
0\
0:
1m
1[
19
#20000
0(
0'
1&
1)
0L
0K
1J
1D
1x
1!!
0{
0u
1w
1~
1z
1|
1&!
1(!
0,!
0.!
00!
03!
04!
07!
08!
09!
1:!
1;!
1<!
1=!
0>!
0@!
0t
1l
18!
14!
10!
0(!
0#!
0m
0o
1p
1q
1r
1s
1>!
0<!
0;!
0:!
0]
1\
1$!
0[
0Y
1X
1W
1V
1U
02
1:
0s
0r
0q
1o
0?!
09
07
16
15
14
13
0U
0V
0W
1Y
0n
17
05
04
03
0Z
08
#21000
1(
1L
1u
0w
1}
0l
0~
1@!
0\
0:
1m
1[
19
#22000
0(
1'
0L
1K
1{
0u
1w
0}
1~
1#!
0@!
1l
0$!
0~
0#!
0m
1@!
1?!
1\
1$!
0[
1:
1n
1m
0?!
09
1Z
1[
0n
19
18
0Z
08
#23000
1(
1L
1u
0w
1}
0l
1~
1#!
0@!
0\
0$!
0:
0m
1?!
0[
1n
09
1Z
18
#24000
0(
0'
0&
1%
0L
0K
0J
1I
1%!
0!!
0{
0u
1w
0}
0~
0#!
1$!
1(!
1+!
0>!
0?!
1@!
1l
1,!
1.!
0$!
0&!
1~
1m
0n
0o
0@!
1?!
0=!
1\
0(!
0+!
00!
1[
0Z
0Y
1:
0p
1n
0m
1<!
1>!
19
08
07
0,!
0.!
0X
1Z
0[
1o
1q
1=!
09
18
06
10!
1Y
1W
1p
0<!
17
15
1X
0q
16
0W
05
#25000
1(
0)
1L
0D
0x
1u
0w
0z
0|
1$!
1(!
1+!
1,!
1.!
00!
04!
08!
1:!
1;!
1<!
0=!
0>!
0?!
0l
10!
13!
0,!
1#!
0n
0o
0p
1q
1r
1s
1=!
0<!
0\
0$!
14!
17!
0Z
0Y
0X
1W
1V
1U
0:
0q
1p
0;!
1?!
08
07
06
15
14
13
18!
19!
0W
1X
1n
0r
0:!
16
05
1t
1Z
0V
0s
1]
18
04
0U
12
03
#26000
0(
1'
0L
1K
1{
0u
1w
1|
0~
1@!
1l
1~
1m
0@!
1\
1[
1:
0m
19
0[
09
#27000
1(
1L
1u
0w
0|
0l
0~
1@!
0\
0:
1m
1[
19
#28000
0(
0'
1&
0L
0K
1J
1!!
0{
0u
1w
1|
1~
1$!
1&!
0?!
0@!
1l
0(!
0~
0#!
0m
0n
1@!
1>!
1\
0$!
0&!
0[
0Z
1:
1o
1m
1?!
09
08
1(!
1Y
1[
1n
0>!
19
17
1Z
0o
18
0Y
07
#29000
1(
1L
1u
0w
0|
0l
1~
1#!
0@!
0\
1$!
1&!
0:
0m
0?!
0(!
0[
0n
1>!
09
0Z
1o
08
1Y
17
#30000
0(
1'
1)
0L
1K
1D
1x
1{
0u
1w
0~
1z
1|
0$!
1(!
1,!
00!
03!
04!
07!
08!
09!
1:!
1;!
1<!
0=!
0>!
1?!
1@!
0t
1l
18!
14!
0#!
1m
1n
0o
0p
1q
1r
1s
0;!
0:!
0]
1\
1$!
1[
1Z
0Y
0X
1W
1V
1U
02
1:
0s
0r
0?!
19
18
07
06
15
14
13
0U
0V
0n
04
03
0Z
08
#31000
1(
1L
1u
0w
1}
0l
1~
1#!
0@!
0\
0$!
0:
0m
1?!
0[
1n
09
1Z
18
#32000
0(
0'
0&
0%
0$
1#
0L
0K
0J
0I
0H
1G
1/!
0)!
0%!
0!!
0{
0u
1w
0}
0~
0#!
1$!
0(!
0+!
0,!
0.!
10!
13!
0<!
1=!
1>!
0?!
1@!
1l
04!
00!
03!
1,!
0$!
0&!
1~
1m
0n
1o
1p
0q
0@!
1?!
0=!
1<!
1;!
1\
1(!
14!
1[
0Z
1Y
1X
0W
1:
1r
1q
0p
1n
0m
0;!
0>!
19
08
17
16
05
1V
1W
0X
1Z
0[
0o
0r
09
18
06
15
14
0Y
0V
07
04
#33000
1(
1L
1u
0w
1}
0l
0~
1@!
0\
0:
1m
1[
19
#34000
0(
1'
0L
1K
1{
0u
1w
0}
1~
1#!
0@!
1l
1$!
1&!
0~
0#!
0m
1@!
0?!
1\
0$!
0&!
0(!
0[
1:
0n
1m
1>!
1?!
09
1(!
0Z
1[
1n
1o
0>!
19
08
1Z
1Y
0o
18
17
0Y
07
#35000
1(
0)
1L
0D
0x
1u
0w
0z
0|
1$!
0(!
0,!
10!
13!
04!
08!
1:!
1;!
0<!
1=!
1>!
0?!
0l
14!
17!
1#!
0n
1o
1p
0q
1r
1s
0;!
0\
0$!
18!
19!
0Z
1Y
1X
0W
1V
1U
0:
0r
0:!
1?!
08
17
16
05
14
13
1t
0V
1n
0s
1]
04
1Z
0U
12
18
03
#36000
0(
0'
1&
0L
0K
1J
1!!
0{
0u
1w
1|
1~
1$!
1&!
0?!
0@!
1l
1(!
1+!
0~
0#!
0m
0n
1@!
0>!
1\
0$!
0&!
1,!
1.!
0[
0Z
1:
0o
1m
0=!
1?!
09
08
00!
0(!
0+!
0Y
1[
1n
0p
1>!
1<!
19
07
0,!
0.!
1Z
0X
1q
1o
1=!
18
06
10!
1W
1Y
1p
0<!
17
15
1X
0q
16
0W
05
#37000
1(
1L
1u
0w
0|
0l
1~
1#!
0@!
0\
1$!
1&!
0:
0m
0?!
1(!
1+!
0[
0n
0>!
09
1,!
1.!
0Z
0o
0=!
08
00!
0Y
0p
1<!
07
0X
1q
06
1W
15
#38000
0(
1'
0L
1K
1{
0u
1w
1|
0~
1@!
1l
1~
1m
0@!
1\
1[
1:
0m
19
0[
09
#39000
1(
1L
1u
0w
0|
0l
0~
1@!
0\
0:
1m
1[
19
#40000
0(
0'
0&
1)
1%
0L
0K
0J
1I
1D
1x
1%!
0!!
0{
0u
1w
1~
1z
1|
0,!
0.!
10!
04!
07!
08!
09!
1:!
1;!
0<!
1=!
0@!
0t
1l
18!
00!
03!
0#!
0m
1p
0q
1r
1s
1<!
0:!
0]
1\
0$!
0&!
14!
0[
1X
0W
1V
1U
02
1:
0s
1q
0;!
1?!
09
16
05
14
13
0(!
0+!
0U
1W
1n
0r
1>!
15
03
1,!
1Z
0V
1o
0=!
18
04
1Y
0p
17
0X
06
#41000
1(
1L
1u
0w
1}
0l
0~
1@!
0\
0:
1m
1[
19
#42000
0(
1'
0L
1K
1{
0u
1w
0}
1~
1#!
0@!
1l
1$!
1&!
0~
0#!
0m
1@!
0?!
1\
0$!
0&!
1(!
1+!
0[
1:
0n
1m
0>!
1?!
09
0,!
0(!
0+!
0Z
1[
1n
0o
1>!
1=!
19
08
1,!
1Z
0Y
1p
1o
0=!
18
07
1X
1Y
0p
17
16
0X
06
#43000
1(
1L
1u
0w
1}
0l
1~
1#!
0@!
0\
1$!
1&!
0:
0m
0?!
1(!
1+!
0[
0n
0>!
09
0,!
0Z
0o
1=!
08
0Y
1p
07
1X
16
#44000
0(
0'
1&
0L
0K
1J
1!!
0{
0u
1w
0}
0~
0#!
0$!
1?!
1@!
1l
1$!
1~
1m
1n
0@!
0?!
1\
1[
1Z
1:
0n
0m
19
18
0Z
0[
09
08
#45000
1(
0)
1L
0D
0x
1u
0w
0z
0|
0$!
0&!
0(!
1,!
1.!
10!
13!
04!
08!
1:!
1;!
0<!
0=!
1>!
1?!
0l
14!
17!
00!
1(!
1#!
1n
1o
0p
0q
1r
1s
0>!
1<!
0;!
0\
1$!
1&!
18!
19!
1Z
1Y
0X
0W
1V
1U
0:
0r
1q
0o
0:!
0?!
18
17
06
05
14
13
1t
0(!
0V
1W
0Y
0n
0s
1>!
1]
07
15
04
0Z
0U
12
1o
08
03
1Y
17
#46000
0(
1'
0L
1K
1{
0u
1w
1|
0~
1@!
1l
1~
1m
0@!
1\
1[
1:
0m
19
0[
09
#47000
1(
1L
1u
0w
0|
0l
0~
1@!
0\
0:
1m
1[
19
#48000
0(
0'
0&
0%
1$
0L
0K
0J
0I
1H
1)!
0%!
0!!
0{
0u
1w
1|
1~
0$!
0&!
1(!
0,!
1=!
0>!
1?!
0@!
1l
0(!
0+!
0~
0#!
0m
1n
0o
1p
1@!
1>!
1\
1$!
1,!
0[
1Z
0Y
1X
1:
1o
1m
0=!
0?!
09
18
07
16
1Y
1[
0n
0p
19
17
0Z
0X
08
06
#49000
1(
1L
1u
0w
0|
0l
1~
1#!
0@!
0\
0$!
0:
0m
1?!
0[
1n
09
1Z
18
#50000
0(
1'
1)
0L
1K
1D
1x
1{
0u
1w
0~
1z
1|
1$!
1&!
1(!
0,!
0.!
10!
04!
07!
08!
09!
1:!
1;!
0<!
1=!
0>!
0?!
1@!
0t
1l
18!
00!
03!
0(!
0#!
1m
0n
0o
1p
0q
1r
1s
1>!
1<!
0:!
0]
1\
0$!
0&!
14!
1[
0Z
0Y
1X
0W
1V
1U
02
1:
0s
1q
1o
0;!
1?!
19
08
07
16
05
14
13
1(!
0U
1W
1Y
1n
0r
0>!
17
15
03
1Z
0V
0o
18
04
0Y
07
#51000
1(
1L
1u
0w
1}
0l
1~
1#!
0@!
0\
1$!
1&!
0:
0m
0?!
0(!
0[
0n
1>!
09
0Z
1o
08
1Y
17
#52000
0(
0'
1&
0L
0K
1J
1!!
0{
0u
1w
0}
0~
0#!
0$!
1?!
1@!
1l
1$!
1~
1m
1n
0@!
0?!
1\
1[
1Z
1:
0n
0m
19
18
0Z
0[
09
08
#53000
1(
1L
1u
0w
1}
0l
0~
1@!
0\
0:
1m
1[
19
#54000
0(
1'
0L
1K
1{
0u
1w
0}
1~
1#!
0@!
1l
0$!
0~
0#!
0m
1@!
1?!
1\
1$!
0[
1:
1n
1m
0?!
09
1Z
1[
0n
19
18
0Z
08
#55000
1(
0)
1L
0D
0x
1u
0w
0z
0|
0$!
0&!
1(!
1+!
1,!
1.!
10!
13!
04!
08!
1:!
1;!
0<!
0=!
0>!
1?!
0l
14!
17!
00!
0,!
0(!
0+!
1#!
1n
0o
0p
0q
1r
1s
1>!
1=!
1<!
0;!
0\
1$!
1&!
1,!
18!
19!
1Z
0Y
0X
0W
1V
1U
0:
0r
1q
1p
1o
0:!
0=!
0?!
18
07
06
05
14
13
1t
1(!
1+!
0V
1W
1X
1Y
0n
0p
0s
0>!
1]
17
16
15
04
0,!
0Z
0X
0U
12
0o
1=!
08
06
03
0Y
1p
07
1X
16
#56000
0(
0'
0&
1%
0L
0K
0J
1I
1%!
0!!
0{
0u
1w
1|
1~
0$!
0&!
0(!
1>!
1?!
0@!
1l
1(!
0~
0#!
0m
1n
1o
1@!
0>!
1\
1$!
0[
1Z
1Y
1:
0o
1m
0?!
09
18
17
0Y
1[
0n
19
07
0Z
08
#57000
1(
1L
1u
0w
0|
0l
1~
1#!
0@!
0\
0$!
0:
0m
1?!
0[
1n
09
1Z
18
#58000
0(
1'
0L
1K
1{
0u
1w
1|
0~
1@!
1l
1~
1m
0@!
1\
1[
1:
0m
19
0[
09
#59000
1(
1L
1u
0w
0|
0l
0~
1@!
0\
0:
1m
1[
19
#60000
0(
0'
1&
1)
0L
0K
1J
1D
1x
1!!
0{
0u
1w
1~
1z
1|
1&!
0(!
0+!
1,!
10!
04!
07!
08!
09!
1:!
1;!
0<!
0=!
1>!
0@!
0t
1l
18!
0,!
0.!
1(!
1+!
0#!
0m
1o
0p
0q
1r
1s
0>!
1=!
0:!
0]
1\
1$!
1,!
1.!
00!
03!
0[
1Y
0X
0W
1V
1U
02
1:
0s
1p
0o
1<!
0=!
0?!
09
17
06
05
14
13
14!
10!
13!
0U
1X
0Y
0n
0p
1q
0<!
0;!
07
16
03
04!
0Z
0X
1W
0r
0q
1;!
08
06
15
0V
0W
1r
05
04
1V
14
#61000
1(
1L
1u
0w
1}
0l
0~
1@!
0\
0:
1m
1[
19
#62000
0(
1'
0L
1K
1{
0u
1w
0}
1~
1#!
0@!
1l
0$!
0~
0#!
0m
1@!
1?!
1\
1$!
0[
1:
1n
1m
0?!
09
1Z
1[
0n
19
18
0Z
08
#63000
1(
1L
1u
0w
1}
0l
1~
1#!
0@!
0\
0$!
0:
0m
1?!
0[
1n
09
1Z
18
#64000
0(
0'
0&
0%
0$
0#
1"
0L
0K
0J
0I
0H
0G
1F
11!
0/!
0)!
0%!
0!!
0{
0u
1w
0}
0~
0#!
1$!
0(!
0+!
0,!
0.!
00!
03!
14!
17!
0;!
1<!
1=!
1>!
0?!
1@!
1l
08!
04!
07!
10!
1,!
0$!
0&!
1~
1m
0n
1o
1p
1q
0r
0@!
1?!
0=!
0<!
1;!
1:!
1\
1(!
18!
1[
0Z
1Y
1X
1W
0V
1:
1s
1r
0q
0p
1n
0m
0:!
0>!
19
08
17
16
15
04
1U
1V
0W
0X
1Z
0[
0o
0s
09
18
06
05
14
13
0Y
0U
07
03
#65000
1(
0)
1L
0D
0x
1u
0w
0z
0|
1$!
0(!
0,!
00!
14!
17!
08!
1:!
0;!
1<!
1=!
1>!
0?!
0l
18!
19!
1#!
0n
1o
1p
1q
0r
1s
0:!
0\
1t
0$!
0Z
1Y
1X
1W
0V
1U
0:
0s
1?!
1]
08
17
16
15
04
13
0U
12
1n
03
1Z
18
#66000
0(
1'
0L
1K
1{
0u
1w
1|
0~
1@!
1l
1~
1m
0@!
1\
1[
1:
0m
19
0[
09
#67000
1(
1L
1u
0w
0|
0l
0~
1@!
0\
0:
1m
1[
19
#68000
0(
0'
1&
0L
0K
1J
1!!
0{
0u
1w
1|
1~
1$!
1&!
0?!
0@!
1l
1(!
1+!
0~
0#!
0m
0n
1@!
0>!
1\
0$!
0&!
1,!
1.!
0[
0Z
1:
0o
1m
0=!
1?!
09
08
10!
13!
0(!
0+!
0Y
1[
1n
0p
1>!
0<!
19
07
0,!
0.!
04!
1Z
0X
0q
1o
1;!
1=!
18
06
00!
03!
0W
1Y
1p
1r
1<!
17
05
14!
1X
1V
1q
0;!
16
14
1W
0r
15
0V
04
#69000
1(
1L
1u
0w
0|
0l
1~
1#!
0@!
0\
1$!
1&!
0:
0m
0?!
1(!
1+!
0[
0n
0>!
09
1,!
1.!
0Z
0o
0=!
08
10!
13!
0Y
0p
0<!
07
04!
0X
0q
1;!
06
0W
1r
05
1V
14
#70000
0(
1'
1)
0L
1K
1D
1x
1{
0u
1w
0~
1z
1|
0$!
0(!
0+!
0,!
0.!
00!
03!
14!
08!
09!
1:!
0;!
1<!
1=!
1>!
1?!
1@!
0t
1l
04!
07!
10!
1,!
0#!
1m
1n
1o
1p
1q
0r
1s
0=!
0<!
1;!
0]
1\
1$!
18!
1[
1Z
1Y
1X
1W
0V
1U
02
1:
1r
0q
0p
0:!
0?!
19
18
17
16
15
04
13
1V
0W
0X
0n
0s
06
05
14
0Z
0U
08
03
#71000
1(
1L
1u
0w
1}
0l
1~
1#!
0@!
0\
0$!
0:
0m
1?!
0[
1n
09
1Z
18
#72000
0(
0'
0&
1%
0L
0K
0J
1I
1%!
0!!
0{
0u
1w
0}
0~
0#!
1$!
1(!
1+!
0>!
0?!
1@!
1l
0,!
0$!
0&!
1~
1m
0n
0o
0@!
1?!
1=!
1\
0(!
0+!
1[
0Z
0Y
1:
1p
1n
0m
1>!
19
08
07
1,!
1X
1Z
0[
1o
0=!
09
18
16
1Y
0p
17
0X
06
#73000
1(
1L
1u
0w
1}
0l
0~
1@!
0\
0:
1m
1[
19
#74000
0(
1'
0L
1K
1{
0u
1w
0}
1~
1#!
0@!
1l
1$!
1&!
0~
0#!
0m
1@!
0?!
1\
0$!
0&!
1(!
1+!
0[
1:
0n
1m
0>!
1?!
09
0,!
0(!
0+!
0Z
1[
1n
0o
1>!
1=!
19
08
1,!
1Z
0Y
1p
1o
0=!
18
07
1X
1Y
0p
17
16
0X
06
#75000
1(
0)
1L
0D
0x
1u
0w
0z
0|
1$!
1(!
1+!
0,!
00!
14!
17!
08!
1:!
0;!
1<!
1=!
0>!
0?!
0l
18!
19!
1,!
1.!
1#!
0n
0o
1p
1q
0r
1s
0=!
0:!
0\
1t
0$!
10!
13!
0Z
0Y
1X
1W
0V
1U
0:
0s
0p
0<!
1?!
1]
08
07
16
15
04
13
04!
0U
0X
12
1n
0q
1;!
06
03
1Z
0W
1r
18
05
1V
14
#76000
0(
0'
1&
0L
0K
1J
1!!
0{
0u
1w
1|
1~
1$!
1&!
0?!
0@!
1l
0(!
0~
0#!
0m
0n
1@!
1>!
1\
0$!
0&!
0[
0Z
1:
1o
1m
1?!
09
08
1(!
1Y
1[
1n
0>!
19
17
1Z
0o
18
0Y
07
#77000
1(
1L
1u
0w
0|
0l
1~
1#!
0@!
0\
1$!
1&!
0:
0m
0?!
0(!
0[
0n
1>!
09
0Z
1o
08
1Y
17
#78000
0(
1'
0L
1K
1{
0u
1w
1|
0~
1@!
1l
1~
1m
0@!
1\
1[
1:
0m
19
0[
09
#79000
1(
1L
1u
0w
0|
0l
0~
1@!
0\
0:
1m
1[
19
#80000
0(
0'
0&
1)
0%
1$
0L
0K
0J
0I
1H
1D
1x
1)!
0%!
0!!
0{
0u
1w
1~
1z
1|
0+!
00!
03!
14!
08!
09!
1:!
0;!
1<!
0@!
0t
1l
04!
07!
0,!
0.!
0#!
0m
1q
0r
1s
1=!
1;!
0]
1\
0$!
0&!
10!
18!
0[
1W
0V
1U
02
1:
1r
1p
0:!
0<!
1?!
09
15
04
13
1(!
1V
1X
1n
0q
0s
0>!
16
14
1Z
0W
0U
0o
18
05
03
0Y
07
#81000
1(
1L
1u
0w
1}
0l
0~
1@!
0\
0:
1m
1[
19
#82000
0(
1'
0L
1K
1{
0u
1w
0}
1~
1#!
0@!
1l
1$!
1&!
0~
0#!
0m
1@!
0?!
1\
0$!
0&!
0(!
0[
1:
0n
1m
1>!
1?!
09
1(!
0Z
1[
1n
1o
0>!
19
08
1Z
1Y
0o
18
17
0Y
07
#83000
1(
1L
1u
0w
1}
0l
1~
1#!
0@!
0\
1$!
1&!
0:
0m
0?!
0(!
0[
0n
1>!
09
0Z
1o
08
1Y
17
