Lab6/simulation/qsim/Lab6.msim.vcd
$comment
	File created using the following command:
		vcd file Lab6.msim.vcd -direction
$end
$date
	Tue Apr 30 09:52:39 2024
$end
$version
	ModelSim Version 10.5b
$end
$timescale
	1ps
$end

$scope module lab6_vhd_vec_tst $end
$var wire 1 ! CLK $end
$var wire 1 " clk2 $end
$var wire 1 # CLK3 $end
$var wire 1 $ D [9] $end
$var wire 1 % D [8] $end
$var wire 1 & D [7] $end
$var wire 1 ' D [6] $end
$var wire 1 ( D [5] $end
$var wire 1 ) D [4] $end
$var wire 1 * D [3] $end
$var wire 1 + D [2] $end
$var wire 1 , D [1] $end
$var wire 1 - D [0] $end
$var wire 1 . DF $end
$var wire 1 / HEX0 [6] $end
$var wire 1 0 HEX0 [5] $end
$var wire 1 1 HEX0 [4] $end
$var wire 1 2 HEX0 [3] $end
$var wire 1 3 HEX0 [2] $end
$var wire 1 4 HEX0 [1] $end
$var wire 1 5 HEX0 [0] $end
$var wire 1 6 LED [3] $end
$var wire 1 7 LED [2] $end
$var wire 1 8 LED [1] $end
$var wire 1 9 LED [0] $end
$var wire 1 : LS $end
$var wire 1 ; PB0 $end
$var wire 1 < PB1 $end
$var wire 1 = Q $end
$var wire 1 > serial $end
$var wire 1 ? SW [9] $end
$var wire 1 @ SW [8] $end
$var wire 1 A SW [7] $end
$var wire 1 B SW [6] $end
$var wire 1 C SW [5] $end
$var wire 1 D SW [4] $end
$var wire 1 E SW [3] $end
$var wire 1 F SW [2] $end
$var wire 1 G SW [1] $end
$var wire 1 H SW [0] $end

$scope module i1 $end
$var wire 1 I gnd $end
$var wire 1 J vcc $end
$var wire 1 K unknown $end
$var wire 1 L devoe $end
$var wire 1 M devclrn $end
$var wire 1 N devpor $end
$var wire 1 O ww_devoe $end
$var wire 1 P ww_devclrn $end
$var wire 1 Q ww_devpor $end
$var wire 1 R ww_serial $end
$var wire 1 S ww_LS $end
$var wire 1 T ww_clk2 $end
$var wire 1 U ww_D [9] $end
$var wire 1 V ww_D [8] $end
$var wire 1 W ww_D [7] $end
$var wire 1 X ww_D [6] $end
$var wire 1 Y ww_D [5] $end
$var wire 1 Z ww_D [4] $end
$var wire 1 [ ww_D [3] $end
$var wire 1 \ ww_D [2] $end
$var wire 1 ] ww_D [1] $end
$var wire 1 ^ ww_D [0] $end
$var wire 1 _ ww_Q $end
$var wire 1 ` ww_DF $end
$var wire 1 a ww_CLK3 $end
$var wire 1 b ww_HEX0 [6] $end
$var wire 1 c ww_HEX0 [5] $end
$var wire 1 d ww_HEX0 [4] $end
$var wire 1 e ww_HEX0 [3] $end
$var wire 1 f ww_HEX0 [2] $end
$var wire 1 g ww_HEX0 [1] $end
$var wire 1 h ww_HEX0 [0] $end
$var wire 1 i ww_CLK $end
$var wire 1 j ww_PB0 $end
$var wire 1 k ww_PB1 $end
$var wire 1 l ww_SW [9] $end
$var wire 1 m ww_SW [8] $end
$var wire 1 n ww_SW [7] $end
$var wire 1 o ww_SW [6] $end
$var wire 1 p ww_SW [5] $end
$var wire 1 q ww_SW [4] $end
$var wire 1 r ww_SW [3] $end
$var wire 1 s ww_SW [2] $end
$var wire 1 t ww_SW [1] $end
$var wire 1 u ww_SW [0] $end
$var wire 1 v ww_LED [3] $end
$var wire 1 w ww_LED [2] $end
$var wire 1 x ww_LED [1] $end
$var wire 1 y ww_LED [0] $end
$var wire 1 z \~QUARTUS_CREATED_ADC1~_CHSEL_bus\ [4] $end
$var wire 1 { \~QUARTUS_CREATED_ADC1~_CHSEL_bus\ [3] $end
$var wire 1 | \~QUARTUS_CREATED_ADC1~_CHSEL_bus\ [2] $end
$var wire 1 } \~QUARTUS_CREATED_ADC1~_CHSEL_bus\ [1] $end
$var wire 1 ~ \~QUARTUS_CREATED_ADC1~_CHSEL_bus\ [0] $end
$var wire 1 !! \~QUARTUS_CREATED_ADC2~_CHSEL_bus\ [4] $end
$var wire 1 "! \~QUARTUS_CREATED_ADC2~_CHSEL_bus\ [3] $end
$var wire 1 #! \~QUARTUS_CREATED_ADC2~_CHSEL_bus\ [2] $end
$var wire 1 $! \~QUARTUS_CREATED_ADC2~_CHSEL_bus\ [1] $end
$var wire 1 %! \~QUARTUS_CREATED_ADC2~_CHSEL_bus\ [0] $end
$var wire 1 &! \inst|comb~0clkctrl_INCLK_bus\ [3] $end
$var wire 1 '! \inst|comb~0clkctrl_INCLK_bus\ [2] $end
$var wire 1 (! \inst|comb~0clkctrl_INCLK_bus\ [1] $end
$var wire 1 )! \inst|comb~0clkctrl_INCLK_bus\ [0] $end
$var wire 1 *! \inst2|tmp~clkctrl_INCLK_bus\ [3] $end
$var wire 1 +! \inst2|tmp~clkctrl_INCLK_bus\ [2] $end
$var wire 1 ,! \inst2|tmp~clkctrl_INCLK_bus\ [1] $end
$var wire 1 -! \inst2|tmp~clkctrl_INCLK_bus\ [0] $end
$var wire 1 .! \clk2~inputclkctrl_INCLK_bus\ [3] $end
$var wire 1 /! \clk2~inputclkctrl_INCLK_bus\ [2] $end
$var wire 1 0! \clk2~inputclkctrl_INCLK_bus\ [1] $end
$var wire 1 1! \clk2~inputclkctrl_INCLK_bus\ [0] $end
$var wire 1 2! \CLK~inputclkctrl_INCLK_bus\ [3] $end
$var wire 1 3! \CLK~inputclkctrl_INCLK_bus\ [2] $end
$var wire 1 4! \CLK~inputclkctrl_INCLK_bus\ [1] $end
$var wire 1 5! \CLK~inputclkctrl_INCLK_bus\ [0] $end
$var wire 1 6! \~QUARTUS_CREATED_GND~I_combout\ $end
$var wire 1 7! \~QUARTUS_CREATED_UNVM~~busy\ $end
$var wire 1 8! \~QUARTUS_CREATED_ADC1~~eoc\ $end
$var wire 1 9! \~QUARTUS_CREATED_ADC2~~eoc\ $end
$var wire 1 :! \serial~output_o\ $end
$var wire 1 ;! \Q~output_o\ $end
$var wire 1 <! \HEX0[6]~output_o\ $end
$var wire 1 =! \HEX0[5]~output_o\ $end
$var wire 1 >! \HEX0[4]~output_o\ $end
$var wire 1 ?! \HEX0[3]~output_o\ $end
$var wire 1 @! \HEX0[2]~output_o\ $end
$var wire 1 A! \HEX0[1]~output_o\ $end
$var wire 1 B! \HEX0[0]~output_o\ $end
$var wire 1 C! \LED[3]~output_o\ $end
$var wire 1 D! \LED[2]~output_o\ $end
$var wire 1 E! \LED[1]~output_o\ $end
$var wire 1 F! \LED[0]~output_o\ $end
$var wire 1 G! \clk2~input_o\ $end
$var wire 1 H! \clk2~inputclkctrl_outclk\ $end
$var wire 1 I! \LS~input_o\ $end
$var wire 1 J! \D[9]~input_o\ $end
$var wire 1 K! \D[8]~input_o\ $end
$var wire 1 L! \D[7]~input_o\ $end
$var wire 1 M! \D[6]~input_o\ $end
$var wire 1 N! \D[5]~input_o\ $end
$var wire 1 O! \D[4]~input_o\ $end
$var wire 1 P! \D[2]~input_o\ $end
$var wire 1 Q! \D[1]~input_o\ $end
$var wire 1 R! \D[0]~input_o\ $end
$var wire 1 S! \inst1|DFF0|TQ~feeder_combout\ $end
$var wire 1 T! \inst1|DFF0|TQ~q\ $end
$var wire 1 U! \inst1|LSMOD[0]~8_combout\ $end
$var wire 1 V! \inst1|DFF1|TQ~q\ $end
$var wire 1 W! \inst1|LSMOD[1]~7_combout\ $end
$var wire 1 X! \inst1|DFF2|TQ~q\ $end
$var wire 1 Y! \D[3]~input_o\ $end
$var wire 1 Z! \inst1|LSMOD[2]~6_combout\ $end
$var wire 1 [! \inst1|DFF3|TQ~q\ $end
$var wire 1 \! \inst1|LSMOD[3]~5_combout\ $end
$var wire 1 ]! \inst1|DFF4|TQ~q\ $end
$var wire 1 ^! \inst1|LSMOD[4]~4_combout\ $end
$var wire 1 _! \inst1|DFF5|TQ~q\ $end
$var wire 1 `! \inst1|LSMOD[5]~3_combout\ $end
$var wire 1 a! \inst1|DFF6|TQ~q\ $end
$var wire 1 b! \inst1|LSMOD[6]~2_combout\ $end
$var wire 1 c! \inst1|DFF7|TQ~q\ $end
$var wire 1 d! \inst1|LSMOD[7]~1_combout\ $end
$var wire 1 e! \inst1|DFF8|TQ~q\ $end
$var wire 1 f! \inst1|LSMOD[8]~0_combout\ $end
$var wire 1 g! \inst1|DFF9|TQ~q\ $end
$var wire 1 h! \CLK3~input_o\ $end
$var wire 1 i! \DF~input_o\ $end
$var wire 1 j! \inst5|TQ~feeder_combout\ $end
$var wire 1 k! \inst5|TQ~q\ $end
$var wire 1 l! \CLK~input_o\ $end
$var wire 1 m! \CLK~inputclkctrl_outclk\ $end
$var wire 1 n! \inst2|Add0~0_combout\ $end
$var wire 1 o! \inst2|count[0]~20_combout\ $end
$var wire 1 p! \inst2|Add0~1\ $end
$var wire 1 q! \inst2|Add0~2_combout\ $end
$var wire 1 r! \inst2|Add0~3\ $end
$var wire 1 s! \inst2|Add0~4_combout\ $end
$var wire 1 t! \inst2|Add0~5\ $end
$var wire 1 u! \inst2|Add0~6_combout\ $end
$var wire 1 v! \inst2|Add0~7\ $end
$var wire 1 w! \inst2|Add0~8_combout\ $end
$var wire 1 x! \inst2|Add0~9\ $end
$var wire 1 y! \inst2|Add0~10_combout\ $end
$var wire 1 z! \inst2|Add0~11\ $end
$var wire 1 {! \inst2|Add0~12_combout\ $end
$var wire 1 |! \inst2|count~8_combout\ $end
$var wire 1 }! \inst2|Add0~13\ $end
$var wire 1 ~! \inst2|Add0~14_combout\ $end
$var wire 1 !" \inst2|Add0~15\ $end
$var wire 1 "" \inst2|Add0~16_combout\ $end
$var wire 1 #" \inst2|Add0~17\ $end
$var wire 1 $" \inst2|Add0~18_combout\ $end
$var wire 1 %" \inst2|Add0~19\ $end
$var wire 1 &" \inst2|Add0~20_combout\ $end
$var wire 1 '" \inst2|Add0~21\ $end
$var wire 1 (" \inst2|Add0~23\ $end
$var wire 1 )" \inst2|Add0~24_combout\ $end
$var wire 1 *" \inst2|count~10_combout\ $end
$var wire 1 +" \inst2|Add0~25\ $end
$var wire 1 ," \inst2|Add0~26_combout\ $end
$var wire 1 -" \inst2|count~11_combout\ $end
$var wire 1 ." \inst2|Add0~27\ $end
$var wire 1 /" \inst2|Add0~28_combout\ $end
$var wire 1 0" \inst2|count~12_combout\ $end
$var wire 1 1" \inst2|Add0~29\ $end
$var wire 1 2" \inst2|Add0~30_combout\ $end
$var wire 1 3" \inst2|Add0~31\ $end
$var wire 1 4" \inst2|Add0~32_combout\ $end
$var wire 1 5" \inst2|count~13_combout\ $end
$var wire 1 6" \inst2|Add0~33\ $end
$var wire 1 7" \inst2|Add0~34_combout\ $end
$var wire 1 8" \inst2|Add0~35\ $end
$var wire 1 9" \inst2|Add0~36_combout\ $end
$var wire 1 :" \inst2|count~14_combout\ $end
$var wire 1 ;" \inst2|Add0~37\ $end
$var wire 1 <" \inst2|Add0~38_combout\ $end
$var wire 1 =" \inst2|count~15_combout\ $end
$var wire 1 >" \inst2|Equal0~5_combout\ $end
$var wire 1 ?" \inst2|Add0~39\ $end
$var wire 1 @" \inst2|Add0~40_combout\ $end
$var wire 1 A" \inst2|count~16_combout\ $end
$var wire 1 B" \inst2|Add0~41\ $end
$var wire 1 C" \inst2|Add0~42_combout\ $end
$var wire 1 D" \inst2|count~17_combout\ $end
$var wire 1 E" \inst2|Add0~43\ $end
$var wire 1 F" \inst2|Add0~44_combout\ $end
$var wire 1 G" \inst2|count~18_combout\ $end
$var wire 1 H" \inst2|Add0~45\ $end
$var wire 1 I" \inst2|Add0~46_combout\ $end
$var wire 1 J" \inst2|Add0~47\ $end
$var wire 1 K" \inst2|Add0~48_combout\ $end
$var wire 1 L" \inst2|count~19_combout\ $end
$var wire 1 M" \inst2|Add0~49\ $end
$var wire 1 N" \inst2|Add0~50_combout\ $end
$var wire 1 O" \inst2|Add0~51\ $end
$var wire 1 P" \inst2|Add0~52_combout\ $end
$var wire 1 Q" \inst2|Add0~53\ $end
$var wire 1 R" \inst2|Add0~54_combout\ $end
$var wire 1 S" \inst2|Add0~55\ $end
$var wire 1 T" \inst2|Add0~56_combout\ $end
$var wire 1 U" \inst2|Add0~57\ $end
$var wire 1 V" \inst2|Add0~58_combout\ $end
$var wire 1 W" \inst2|Add0~59\ $end
$var wire 1 X" \inst2|Add0~60_combout\ $end
$var wire 1 Y" \inst2|Add0~61\ $end
$var wire 1 Z" \inst2|Add0~62_combout\ $end
$var wire 1 [" \inst2|Equal0~8_combout\ $end
$var wire 1 \" \inst2|Equal0~6_combout\ $end
$var wire 1 ]" \inst2|Equal0~7_combout\ $end
$var wire 1 ^" \inst2|Equal0~9_combout\ $end
$var wire 1 _" \inst2|Add0~22_combout\ $end
$var wire 1 `" \inst2|count~9_combout\ $end
$var wire 1 a" \inst2|Equal0~2_combout\ $end
$var wire 1 b" \inst2|Equal0~1_combout\ $end
$var wire 1 c" \inst2|Equal0~0_combout\ $end
$var wire 1 d" \inst2|Equal0~3_combout\ $end
$var wire 1 e" \inst2|Equal0~4_combout\ $end
$var wire 1 f" \inst2|tmp~0_combout\ $end
$var wire 1 g" \inst2|tmp~feeder_combout\ $end
$var wire 1 h" \inst2|tmp~q\ $end
$var wire 1 i" \inst2|tmp~clkctrl_outclk\ $end
$var wire 1 j" \inst|Equal0~1_combout\ $end
$var wire 1 k" \inst|Equal0~3_combout\ $end
$var wire 1 l" \inst|Equal0~2_combout\ $end
$var wire 1 m" \inst|Equal0~0_combout\ $end
$var wire 1 n" \inst|Equal0~4_combout\ $end
$var wire 1 o" \PB0~input_o\ $end
$var wire 1 p" \inst|JKFF|TQ~0_combout\ $end
$var wire 1 q" \inst|JKFF|TQ~feeder_combout\ $end
$var wire 1 r" \PB1~input_o\ $end
$var wire 1 s" \inst|JKFF|TQ~q\ $end
$var wire 1 t" \inst|count[0]~31_combout\ $end
$var wire 1 u" \inst|count[1]~32_combout\ $end
$var wire 1 v" \inst|count[4]~34_combout\ $end
$var wire 1 w" \inst|count[1]~33\ $end
$var wire 1 x" \inst|count[2]~35_combout\ $end
$var wire 1 y" \inst|count[2]~36\ $end
$var wire 1 z" \inst|count[3]~37_combout\ $end
$var wire 1 {" \inst|count[3]~38\ $end
$var wire 1 |" \inst|count[4]~39_combout\ $end
$var wire 1 }" \inst|count[4]~40\ $end
$var wire 1 ~" \inst|count[5]~41_combout\ $end
$var wire 1 !# \inst|count[5]~42\ $end
$var wire 1 "# \inst|count[6]~43_combout\ $end
$var wire 1 ## \inst|count[6]~44\ $end
$var wire 1 $# \inst|count[7]~45_combout\ $end
$var wire 1 %# \inst|count[7]~46\ $end
$var wire 1 &# \inst|count[8]~47_combout\ $end
$var wire 1 '# \inst|count[8]~48\ $end
$var wire 1 (# \inst|count[9]~49_combout\ $end
$var wire 1 )# \inst|count[9]~50\ $end
$var wire 1 *# \inst|count[10]~51_combout\ $end
$var wire 1 +# \inst|count[10]~52\ $end
$var wire 1 ,# \inst|count[11]~53_combout\ $end
$var wire 1 -# \inst|count[11]~54\ $end
$var wire 1 .# \inst|count[12]~55_combout\ $end
$var wire 1 /# \inst|count[12]~56\ $end
$var wire 1 0# \inst|count[13]~57_combout\ $end
$var wire 1 1# \inst|count[13]~58\ $end
$var wire 1 2# \inst|count[14]~59_combout\ $end
$var wire 1 3# \inst|count[14]~60\ $end
$var wire 1 4# \inst|count[15]~61_combout\ $end
$var wire 1 5# \inst|count[15]~62\ $end
$var wire 1 6# \inst|count[16]~63_combout\ $end
$var wire 1 7# \inst|count[16]~64\ $end
$var wire 1 8# \inst|count[17]~65_combout\ $end
$var wire 1 9# \inst|count[17]~66\ $end
$var wire 1 :# \inst|count[18]~67_combout\ $end
$var wire 1 ;# \inst|count[18]~68\ $end
$var wire 1 <# \inst|count[19]~69_combout\ $end
$var wire 1 =# \inst|Equal0~5_combout\ $end
$var wire 1 ># \inst|count[19]~70\ $end
$var wire 1 ?# \inst|count[20]~71_combout\ $end
$var wire 1 @# \inst|count[20]~72\ $end
$var wire 1 A# \inst|count[21]~73_combout\ $end
$var wire 1 B# \inst|count[21]~74\ $end
$var wire 1 C# \inst|count[22]~75_combout\ $end
$var wire 1 D# \inst|count[22]~76\ $end
$var wire 1 E# \inst|count[23]~77_combout\ $end
$var wire 1 F# \inst|Equal0~6_combout\ $end
$var wire 1 G# \inst|count[23]~78\ $end
$var wire 1 H# \inst|count[24]~79_combout\ $end
$var wire 1 I# \inst|count[24]~80\ $end
$var wire 1 J# \inst|count[25]~81_combout\ $end
$var wire 1 K# \inst|count[25]~82\ $end
$var wire 1 L# \inst|count[26]~83_combout\ $end
$var wire 1 M# \inst|count[26]~84\ $end
$var wire 1 N# \inst|count[27]~85_combout\ $end
$var wire 1 O# \inst|count[27]~86\ $end
$var wire 1 P# \inst|count[28]~87_combout\ $end
$var wire 1 Q# \inst|count[28]~88\ $end
$var wire 1 R# \inst|count[29]~89_combout\ $end
$var wire 1 S# \inst|count[29]~90\ $end
$var wire 1 T# \inst|count[30]~91_combout\ $end
$var wire 1 U# \inst|count[30]~92\ $end
$var wire 1 V# \inst|count[31]~93_combout\ $end
$var wire 1 W# \inst|Equal0~8_combout\ $end
$var wire 1 X# \inst|Equal0~7_combout\ $end
$var wire 1 Y# \inst|Equal0~9_combout\ $end
$var wire 1 Z# \inst|LOADED~0_combout\ $end
$var wire 1 [# \inst|LOADED~q\ $end
$var wire 1 \# \inst|comb~0_combout\ $end
$var wire 1 ]# \inst|comb~0clkctrl_outclk\ $end
$var wire 1 ^# \SW[7]~input_o\ $end
$var wire 1 _# \SW[6]~input_o\ $end
$var wire 1 `# \SW[1]~input_o\ $end
$var wire 1 a# \SW[0]~input_o\ $end
$var wire 1 b# \inst|PISO|DFF0|TQ~q\ $end
$var wire 1 c# \inst|PISO|LSMOD[0]~8_combout\ $end
$var wire 1 d# \inst|PISO|DFF1|TQ~q\ $end
$var wire 1 e# \SW[2]~input_o\ $end
$var wire 1 f# \inst|PISO|LSMOD[1]~7_combout\ $end
$var wire 1 g# \inst|PISO|DFF2|TQ~q\ $end
$var wire 1 h# \SW[3]~input_o\ $end
$var wire 1 i# \inst|PISO|LSMOD[2]~6_combout\ $end
$var wire 1 j# \inst|PISO|DFF3|TQ~q\ $end
$var wire 1 k# \SW[4]~input_o\ $end
$var wire 1 l# \inst|PISO|LSMOD[3]~5_combout\ $end
$var wire 1 m# \inst|PISO|DFF4|TQ~q\ $end
$var wire 1 n# \SW[5]~input_o\ $end
$var wire 1 o# \inst|PISO|LSMOD[4]~4_combout\ $end
$var wire 1 p# \inst|PISO|DFF5|TQ~q\ $end
$var wire 1 q# \inst|PISO|LSMOD[5]~3_combout\ $end
$var wire 1 r# \inst|PISO|DFF6|TQ~q\ $end
$var wire 1 s# \inst|PISO|LSMOD[6]~2_combout\ $end
$var wire 1 t# \inst|PISO|DFF7|TQ~q\ $end
$var wire 1 u# \SW[8]~input_o\ $end
$var wire 1 v# \inst|PISO|LSMOD[7]~1_combout\ $end
$var wire 1 w# \inst|PISO|DFF8|TQ~q\ $end
$var wire 1 x# \SW[9]~input_o\ $end
$var wire 1 y# \inst|PISO|LSMOD[8]~0_combout\ $end
$var wire 1 z# \inst|PISO|DFF9|TQ~q\ $end
$var wire 1 {# \inst|estado~17_combout\ $end
$var wire 1 |# \inst|estado.s6~q\ $end
$var wire 1 }# \inst|estado~14_combout\ $end
$var wire 1 ~# \inst|estado.s7~q\ $end
$var wire 1 !$ \inst|estado~18_combout\ $end
$var wire 1 "$ \inst|estado.s2~q\ $end
$var wire 1 #$ \inst|Selector1~0_combout\ $end
$var wire 1 $$ \inst|estado.s3~q\ $end
$var wire 1 %$ \inst|estado~16_combout\ $end
$var wire 1 &$ \inst|estado.s4~q\ $end
$var wire 1 '$ \inst|estado~15_combout\ $end
$var wire 1 ($ \inst|estado.s5~q\ $end
$var wire 1 )$ \inst|estado~13_combout\ $end
$var wire 1 *$ \inst|estado.s1~q\ $end
$var wire 1 +$ \inst|Selector0~0_combout\ $end
$var wire 1 ,$ \inst|estado.s0~q\ $end
$var wire 1 -$ \inst|WideOr2~combout\ $end
$var wire 1 .$ \inst|WideOr3~0_combout\ $end
$var wire 1 /$ \inst|WideOr4~0_combout\ $end
$var wire 1 0$ \inst|WideOr5~combout\ $end
$var wire 1 1$ \inst|HEX0[0]~0_combout\ $end
$var wire 1 2$ \inst2|count\ [31] $end
$var wire 1 3$ \inst2|count\ [30] $end
$var wire 1 4$ \inst2|count\ [29] $end
$var wire 1 5$ \inst2|count\ [28] $end
$var wire 1 6$ \inst2|count\ [27] $end
$var wire 1 7$ \inst2|count\ [26] $end
$var wire 1 8$ \inst2|count\ [25] $end
$var wire 1 9$ \inst2|count\ [24] $end
$var wire 1 :$ \inst2|count\ [23] $end
$var wire 1 ;$ \inst2|count\ [22] $end
$var wire 1 <$ \inst2|count\ [21] $end
$var wire 1 =$ \inst2|count\ [20] $end
$var wire 1 >$ \inst2|count\ [19] $end
$var wire 1 ?$ \inst2|count\ [18] $end
$var wire 1 @$ \inst2|count\ [17] $end
$var wire 1 A$ \inst2|count\ [16] $end
$var wire 1 B$ \inst2|count\ [15] $end
$var wire 1 C$ \inst2|count\ [14] $end
$var wire 1 D$ \inst2|count\ [13] $end
$var wire 1 E$ \inst2|count\ [12] $end
$var wire 1 F$ \inst2|count\ [11] $end
$var wire 1 G$ \inst2|count\ [10] $end
$var wire 1 H$ \inst2|count\ [9] $end
$var wire 1 I$ \inst2|count\ [8] $end
$var wire 1 J$ \inst2|count\ [7] $end
$var wire 1 K$ \inst2|count\ [6] $end
$var wire 1 L$ \inst2|count\ [5] $end
$var wire 1 M$ \inst2|count\ [4] $end
$var wire 1 N$ \inst2|count\ [3] $end
$var wire 1 O$ \inst2|count\ [2] $end
$var wire 1 P$ \inst2|count\ [1] $end
$var wire 1 Q$ \inst2|count\ [0] $end
$var wire 1 R$ \inst|count\ [31] $end
$var wire 1 S$ \inst|count\ [30] $end
$var wire 1 T$ \inst|count\ [29] $end
$var wire 1 U$ \inst|count\ [28] $end
$var wire 1 V$ \inst|count\ [27] $end
$var wire 1 W$ \inst|count\ [26] $end
$var wire 1 X$ \inst|count\ [25] $end
$var wire 1 Y$ \inst|count\ [24] $end
$var wire 1 Z$ \inst|count\ [23] $end
$var wire 1 [$ \inst|count\ [22] $end
$var wire 1 \$ \inst|count\ [21] $end
$var wire 1 ]$ \inst|count\ [20] $end
$var wire 1 ^$ \inst|count\ [19] $end
$var wire 1 _$ \inst|count\ [18] $end
$var wire 1 `$ \inst|count\ [17] $end
$var wire 1 a$ \inst|count\ [16] $end
$var wire 1 b$ \inst|count\ [15] $end
$var wire 1 c$ \inst|count\ [14] $end
$var wire 1 d$ \inst|count\ [13] $end
$var wire 1 e$ \inst|count\ [12] $end
$var wire 1 f$ \inst|count\ [11] $end
$var wire 1 g$ \inst|count\ [10] $end
$var wire 1 h$ \inst|count\ [9] $end
$var wire 1 i$ \inst|count\ [8] $end
$var wire 1 j$ \inst|count\ [7] $end
$var wire 1 k$ \inst|count\ [6] $end
$var wire 1 l$ \inst|count\ [5] $end
$var wire 1 m$ \inst|count\ [4] $end
$var wire 1 n$ \inst|count\ [3] $end
$var wire 1 o$ \inst|count\ [2] $end
$var wire 1 p$ \inst|count\ [1] $end
$var wire 1 q$ \inst|count\ [0] $end
$var wire 1 r$ \inst|HEX0\ [6] $end
$var wire 1 s$ \inst|HEX0\ [5] $end
$var wire 1 t$ \inst|HEX0\ [4] $end
$var wire 1 u$ \inst|HEX0\ [3] $end
$var wire 1 v$ \inst|HEX0\ [2] $end
$var wire 1 w$ \inst|HEX0\ [1] $end
$var wire 1 x$ \inst|HEX0\ [0] $end
$var wire 1 y$ \inst2|ALT_INV_tmp~clkctrl_outclk\ $end
$var wire 1 z$ \inst2|ALT_INV_tmp~q\ $end
$var wire 1 {$ \inst|ALT_INV_HEX0[0]~0_combout\ $end
$var wire 1 |$ \inst|ALT_INV_WideOr4~0_combout\ $end
$var wire 1 }$ \inst|ALT_INV_WideOr3~0_combout\ $end
$upscope $end
$upscope $end
$enddefinitions $end
#0
$dumpvars
x!
0"
0#
1.
1:
x;
x<
0=
0>
0I
1J
xK
1L
1M
1N
1O
1P
1Q
0R
1S
0T
0_
1`
0a
xi
xj
xk
06!
z7!
z8!
z9!
0:!
0;!
1<!
0=!
0>!
0?!
0@!
0A!
0B!
0C!
0D!
0E!
0F!
0G!
0H!
1I!
0J!
0K!
0L!
0M!
0N!
0O!
0P!
0Q!
0R!
0S!
0T!
0U!
0V!
0W!
0X!
0Y!
0Z!
0[!
0\!
0]!
0^!
0_!
0`!
0a!
0b!
0c!
0d!
0e!
0f!
0g!
0h!
1i!
1j!
0k!
xl!
xm!
0n!
1o!
1p!
1q!
1r!
0s!
0t!
0u!
1v!
0w!
0x!
0y!
1z!
0{!
0|!
0}!
0~!
1!"
0""
0#"
0$"
1%"
0&"
0'"
1("
0)"
0*"
0+"
0,"
0-"
1."
0/"
00"
01"
02"
13"
04"
05"
06"
07"
18"
09"
0:"
0;"
0<"
0="
0>"
1?"
0@"
0A"
0B"
0C"
0D"
1E"
0F"
0G"
0H"
0I"
1J"
0K"
0L"
0M"
0N"
1O"
0P"
0Q"
0R"
1S"
0T"
0U"
0V"
1W"
0X"
0Y"
0Z"
1["
0\"
0]"
0^"
0_"
0`"
0a"
1b"
0c"
0d"
0e"
0f"
0g"
0h"
0i"
1j"
1k"
1l"
0m"
0n"
xo"
1p"
1q"
xr"
0s"
0t"
1u"
0v"
0w"
0x"
1y"
0z"
0{"
0|"
1}"
0~"
0!#
0"#
1##
0$#
0%#
0&#
1'#
0(#
0)#
0*#
1+#
0,#
0-#
0.#
1/#
00#
01#
02#
13#
04#
05#
06#
17#
08#
09#
0:#
1;#
0<#
1=#
0>#
0?#
1@#
0A#
0B#
0C#
1D#
0E#
1F#
0G#
0H#
1I#
0J#
0K#
0L#
1M#
0N#
0O#
0P#
1Q#
0R#
0S#
0T#
1U#
0V#
1W#
1X#
1Y#
0Z#
0[#
x\#
x]#
x^#
x_#
x`#
xa#
0b#
0c#
0d#
xe#
0f#
0g#
xh#
0i#
0j#
xk#
0l#
0m#
xn#
0o#
0p#
0q#
0r#
0s#
0t#
xu#
0v#
0w#
xx#
0y#
0z#
0{#
0|#
0}#
0~#
0!$
0"$
0#$
0$$
0%$
0&$
0'$
0($
0)$
0*$
0+$
0,$
1-$
1.$
1/$
00$
11$
1y$
1z$
0{$
0|$
0}$
0$
0%
0&
0'
0(
0)
0*
0+
0,
0-
0U
0V
0W
0X
0Y
0Z
0[
0\
0]
0^
1b
0c
0d
0e
0f
0g
0h
xl
xm
xn
xo
xp
xq
xr
xs
xt
xu
0v
0w
0x
0y
02$
03$
04$
05$
06$
07$
08$
09$
0:$
0;$
0<$
0=$
0>$
0?$
0@$
0A$
0B$
0C$
0D$
0E$
0F$
0G$
0H$
0I$
0J$
0K$
0L$
0M$
0N$
0O$
0P$
0Q$
0R$
0S$
0T$
0U$
0V$
0W$
0X$
0Y$
0Z$
0[$
0\$
0]$
0^$
0_$
0`$
0a$
0b$
0c$
0d$
0e$
0f$
0g$
0h$
0i$
0j$
0k$
0l$
0m$
0n$
0o$
0p$
0q$
xr$
xs$
xt$
xu$
xv$
0w$
xx$
1.!
1/!
10!
01!
12!
13!
14!
x5!
1*!
1+!
1,!
0-!
1&!
1'!
1(!
x)!
0z
0{
0|
0}
0~
0!!
0"!
0#!
0$!
0%!
1/
00
01
02
03
04
05
06
07
08
09
x?
x@
xA
xB
xC
xD
xE
xF
xG
xH
$end
#10000
1"
1#
1T
1a
1h!
1G!
11!
1k!
1;!
1H!
1_
1=
#20000
0"
0#
0.
0T
0a
0`
0i!
0h!
0G!
01!
0j!
0H!
#30000
1"
1#
1T
1a
1h!
1G!
11!
0k!
0;!
1H!
0_
0=
#40000
0"
0#
1.
0T
0a
1`
1i!
0h!
0G!
01!
1j!
0H!
#50000
1"
1#
1T
1a
1h!
1G!
11!
1k!
1;!
1H!
1_
1=
#60000
0"
0#
0.
0T
0a
0`
0i!
0h!
0G!
01!
0j!
0H!
#70000
1"
1#
1T
1a
1h!
1G!
11!
0k!
0;!
1H!
0_
0=
#80000
0"
0#
1.
0T
0a
1`
1i!
0h!
0G!
01!
1j!
0H!
#90000
1"
1#
1T
1a
1h!
1G!
11!
1k!
1;!
1H!
1_
1=
#100000
0"
0#
0.
0T
0a
0`
0i!
0h!
0G!
01!
0j!
0H!
#110000
1"
1#
1T
1a
1h!
1G!
11!
0k!
0;!
1H!
0_
0=
#120000
0"
0#
1.
0T
0a
1`
1i!
0h!
0G!
01!
1j!
0H!
#130000
1"
1#
1T
1a
1h!
1G!
11!
1k!
1;!
1H!
1_
1=
#140000
0"
0#
0.
0T
0a
0`
0i!
0h!
0G!
01!
0j!
0H!
#150000
1"
1#
1T
1a
1h!
1G!
11!
0k!
0;!
1H!
0_
0=
#160000
0"
0#
1.
0T
0a
1`
1i!
0h!
0G!
01!
1j!
0H!
#170000
1"
1#
1T
1a
1h!
1G!
11!
1k!
1;!
1H!
1_
1=
#180000
0"
0#
0.
0T
0a
0`
0i!
0h!
0G!
01!
0j!
0H!
#190000
1"
1#
1T
1a
1h!
1G!
11!
0k!
0;!
1H!
0_
0=
#200000
0"
0#
1.
0T
0a
1`
1i!
0h!
0G!
01!
1j!
0H!
#210000
1"
1#
1T
1a
1h!
1G!
11!
1k!
1;!
1H!
1_
1=
#220000
0"
0#
0.
0T
0a
0`
0i!
0h!
0G!
01!
0j!
0H!
#230000
1"
1#
1T
1a
1h!
1G!
11!
0k!
0;!
1H!
0_
0=
#240000
0"
0#
1.
0T
0a
1`
1i!
0h!
0G!
01!
1j!
0H!
#250000
1"
1#
1T
1a
1h!
1G!
11!
1k!
1;!
1H!
1_
1=
