lab4/simulation/qsim/Lab4.msim.vcd
$comment
	File created using the following command:
		vcd file Lab4.msim.vcd -direction
$end
$date
	Mon Apr 29 02:05:03 2024
$end
$version
	ModelSim Version 10.5b
$end
$timescale
	1ps
$end

$scope module lab4_vhd_vec_tst $end
$var wire 1 ! CLK $end
$var wire 1 " HEX0 [3] $end
$var wire 1 # HEX0 [2] $end
$var wire 1 $ HEX0 [1] $end
$var wire 1 % HEX0 [0] $end
$var wire 1 & HEX1 [3] $end
$var wire 1 ' HEX1 [2] $end
$var wire 1 ( HEX1 [1] $end
$var wire 1 ) HEX1 [0] $end
$var wire 1 * HEX2 [3] $end
$var wire 1 + HEX2 [2] $end
$var wire 1 , HEX2 [1] $end
$var wire 1 - HEX2 [0] $end
$var wire 1 . HEX3 [3] $end
$var wire 1 / HEX3 [2] $end
$var wire 1 0 HEX3 [1] $end
$var wire 1 1 HEX3 [0] $end
$var wire 1 2 HEX4 [3] $end
$var wire 1 3 HEX4 [2] $end
$var wire 1 4 HEX4 [1] $end
$var wire 1 5 HEX4 [0] $end
$var wire 1 6 HEX5 [3] $end
$var wire 1 7 HEX5 [2] $end
$var wire 1 8 HEX5 [1] $end
$var wire 1 9 HEX5 [0] $end
$var wire 1 : PB0 $end
$var wire 1 ; PB1 $end
$var wire 1 < SW $end

$scope module i1 $end
$var wire 1 = gnd $end
$var wire 1 > vcc $end
$var wire 1 ? unknown $end
$var wire 1 @ devoe $end
$var wire 1 A devclrn $end
$var wire 1 B devpor $end
$var wire 1 C ww_devoe $end
$var wire 1 D ww_devclrn $end
$var wire 1 E ww_devpor $end
$var wire 1 F ww_HEX0 [3] $end
$var wire 1 G ww_HEX0 [2] $end
$var wire 1 H ww_HEX0 [1] $end
$var wire 1 I ww_HEX0 [0] $end
$var wire 1 J ww_CLK $end
$var wire 1 K ww_PB0 $end
$var wire 1 L ww_PB1 $end
$var wire 1 M ww_SW $end
$var wire 1 N ww_HEX1 [3] $end
$var wire 1 O ww_HEX1 [2] $end
$var wire 1 P ww_HEX1 [1] $end
$var wire 1 Q ww_HEX1 [0] $end
$var wire 1 R ww_HEX2 [3] $end
$var wire 1 S ww_HEX2 [2] $end
$var wire 1 T ww_HEX2 [1] $end
$var wire 1 U ww_HEX2 [0] $end
$var wire 1 V ww_HEX3 [3] $end
$var wire 1 W ww_HEX3 [2] $end
$var wire 1 X ww_HEX3 [1] $end
$var wire 1 Y ww_HEX3 [0] $end
$var wire 1 Z ww_HEX4 [3] $end
$var wire 1 [ ww_HEX4 [2] $end
$var wire 1 \ ww_HEX4 [1] $end
$var wire 1 ] ww_HEX4 [0] $end
$var wire 1 ^ ww_HEX5 [3] $end
$var wire 1 _ ww_HEX5 [2] $end
$var wire 1 ` ww_HEX5 [1] $end
$var wire 1 a ww_HEX5 [0] $end
$var wire 1 b \~QUARTUS_CREATED_ADC1~_CHSEL_bus\ [4] $end
$var wire 1 c \~QUARTUS_CREATED_ADC1~_CHSEL_bus\ [3] $end
$var wire 1 d \~QUARTUS_CREATED_ADC1~_CHSEL_bus\ [2] $end
$var wire 1 e \~QUARTUS_CREATED_ADC1~_CHSEL_bus\ [1] $end
$var wire 1 f \~QUARTUS_CREATED_ADC1~_CHSEL_bus\ [0] $end
$var wire 1 g \~QUARTUS_CREATED_ADC2~_CHSEL_bus\ [4] $end
$var wire 1 h \~QUARTUS_CREATED_ADC2~_CHSEL_bus\ [3] $end
$var wire 1 i \~QUARTUS_CREATED_ADC2~_CHSEL_bus\ [2] $end
$var wire 1 j \~QUARTUS_CREATED_ADC2~_CHSEL_bus\ [1] $end
$var wire 1 k \~QUARTUS_CREATED_ADC2~_CHSEL_bus\ [0] $end
$var wire 1 l \inst|SCMS2|JKFF3|TQ~clkctrl_INCLK_bus\ [3] $end
$var wire 1 m \inst|SCMS2|JKFF3|TQ~clkctrl_INCLK_bus\ [2] $end
$var wire 1 n \inst|SCMS2|JKFF3|TQ~clkctrl_INCLK_bus\ [1] $end
$var wire 1 o \inst|SCMS2|JKFF3|TQ~clkctrl_INCLK_bus\ [0] $end
$var wire 1 p \inst|SCMS0|JKFF3|TQ~clkctrl_INCLK_bus\ [3] $end
$var wire 1 q \inst|SCMS0|JKFF3|TQ~clkctrl_INCLK_bus\ [2] $end
$var wire 1 r \inst|SCMS0|JKFF3|TQ~clkctrl_INCLK_bus\ [1] $end
$var wire 1 s \inst|SCMS0|JKFF3|TQ~clkctrl_INCLK_bus\ [0] $end
$var wire 1 t \inst|comb~0clkctrl_INCLK_bus\ [3] $end
$var wire 1 u \inst|comb~0clkctrl_INCLK_bus\ [2] $end
$var wire 1 v \inst|comb~0clkctrl_INCLK_bus\ [1] $end
$var wire 1 w \inst|comb~0clkctrl_INCLK_bus\ [0] $end
$var wire 1 x \CLK~inputclkctrl_INCLK_bus\ [3] $end
$var wire 1 y \CLK~inputclkctrl_INCLK_bus\ [2] $end
$var wire 1 z \CLK~inputclkctrl_INCLK_bus\ [1] $end
$var wire 1 { \CLK~inputclkctrl_INCLK_bus\ [0] $end
$var wire 1 | \inst|SCMS1|JKFF3|TQ~clkctrl_INCLK_bus\ [3] $end
$var wire 1 } \inst|SCMS1|JKFF3|TQ~clkctrl_INCLK_bus\ [2] $end
$var wire 1 ~ \inst|SCMS1|JKFF3|TQ~clkctrl_INCLK_bus\ [1] $end
$var wire 1 !! \inst|SCMS1|JKFF3|TQ~clkctrl_INCLK_bus\ [0] $end
$var wire 1 "! \inst|SCS1|JKFF2|TQ~clkctrl_INCLK_bus\ [3] $end
$var wire 1 #! \inst|SCS1|JKFF2|TQ~clkctrl_INCLK_bus\ [2] $end
$var wire 1 $! \inst|SCS1|JKFF2|TQ~clkctrl_INCLK_bus\ [1] $end
$var wire 1 %! \inst|SCS1|JKFF2|TQ~clkctrl_INCLK_bus\ [0] $end
$var wire 1 &! \inst|SCS0|JKFF3|TQ~clkctrl_INCLK_bus\ [3] $end
$var wire 1 '! \inst|SCS0|JKFF3|TQ~clkctrl_INCLK_bus\ [2] $end
$var wire 1 (! \inst|SCS0|JKFF3|TQ~clkctrl_INCLK_bus\ [1] $end
$var wire 1 )! \inst|SCS0|JKFF3|TQ~clkctrl_INCLK_bus\ [0] $end
$var wire 1 *! \SW~input_o\ $end
$var wire 1 +! \~QUARTUS_CREATED_GND~I_combout\ $end
$var wire 1 ,! \~QUARTUS_CREATED_UNVM~~busy\ $end
$var wire 1 -! \~QUARTUS_CREATED_ADC1~~eoc\ $end
$var wire 1 .! \~QUARTUS_CREATED_ADC2~~eoc\ $end
$var wire 1 /! \HEX0[3]~output_o\ $end
$var wire 1 0! \HEX0[2]~output_o\ $end
$var wire 1 1! \HEX0[1]~output_o\ $end
$var wire 1 2! \HEX0[0]~output_o\ $end
$var wire 1 3! \HEX1[3]~output_o\ $end
$var wire 1 4! \HEX1[2]~output_o\ $end
$var wire 1 5! \HEX1[1]~output_o\ $end
$var wire 1 6! \HEX1[0]~output_o\ $end
$var wire 1 7! \HEX2[3]~output_o\ $end
$var wire 1 8! \HEX2[2]~output_o\ $end
$var wire 1 9! \HEX2[1]~output_o\ $end
$var wire 1 :! \HEX2[0]~output_o\ $end
$var wire 1 ;! \HEX3[3]~output_o\ $end
$var wire 1 <! \HEX3[2]~output_o\ $end
$var wire 1 =! \HEX3[1]~output_o\ $end
$var wire 1 >! \HEX3[0]~output_o\ $end
$var wire 1 ?! \HEX4[3]~output_o\ $end
$var wire 1 @! \HEX4[2]~output_o\ $end
$var wire 1 A! \HEX4[1]~output_o\ $end
$var wire 1 B! \HEX4[0]~output_o\ $end
$var wire 1 C! \HEX5[3]~output_o\ $end
$var wire 1 D! \HEX5[2]~output_o\ $end
$var wire 1 E! \HEX5[1]~output_o\ $end
$var wire 1 F! \HEX5[0]~output_o\ $end
$var wire 1 G! \PB0~input_o\ $end
$var wire 1 H! \inst|pause~0_combout\ $end
$var wire 1 I! \inst|pause~feeder_combout\ $end
$var wire 1 J! \inst|pause~q\ $end
$var wire 1 K! \CLK~input_o\ $end
$var wire 1 L! \CLK~inputclkctrl_outclk\ $end
$var wire 1 M! \inst|Add0~0_combout\ $end
$var wire 1 N! \inst|count~0_combout\ $end
$var wire 1 O! \inst|Add0~1\ $end
$var wire 1 P! \inst|Add0~2_combout\ $end
$var wire 1 Q! \inst|count~1_combout\ $end
$var wire 1 R! \inst|Add0~3\ $end
$var wire 1 S! \inst|Add0~4_combout\ $end
$var wire 1 T! \inst|Add0~5\ $end
$var wire 1 U! \inst|Add0~6_combout\ $end
$var wire 1 V! \inst|Add0~7\ $end
$var wire 1 W! \inst|Add0~8_combout\ $end
$var wire 1 X! \inst|Add0~9\ $end
$var wire 1 Y! \inst|Add0~10_combout\ $end
$var wire 1 Z! \inst|Add0~11\ $end
$var wire 1 [! \inst|Add0~12_combout\ $end
$var wire 1 \! \inst|Add0~13\ $end
$var wire 1 ]! \inst|Add0~14_combout\ $end
$var wire 1 ^! \inst|Equal0~1_combout\ $end
$var wire 1 _! \inst|Equal0~0_combout\ $end
$var wire 1 `! \inst|Add0~15\ $end
$var wire 1 a! \inst|Add0~16_combout\ $end
$var wire 1 b! \inst|Add0~17\ $end
$var wire 1 c! \inst|Add0~18_combout\ $end
$var wire 1 d! \inst|Add0~19\ $end
$var wire 1 e! \inst|Add0~20_combout\ $end
$var wire 1 f! \inst|Add0~21\ $end
$var wire 1 g! \inst|Add0~22_combout\ $end
$var wire 1 h! \inst|Equal0~2_combout\ $end
$var wire 1 i! \inst|Add0~23\ $end
$var wire 1 j! \inst|Add0~24_combout\ $end
$var wire 1 k! \inst|Add0~25\ $end
$var wire 1 l! \inst|Add0~26_combout\ $end
$var wire 1 m! \inst|Add0~27\ $end
$var wire 1 n! \inst|Add0~28_combout\ $end
$var wire 1 o! \inst|Add0~29\ $end
$var wire 1 p! \inst|Add0~30_combout\ $end
$var wire 1 q! \inst|Equal0~3_combout\ $end
$var wire 1 r! \inst|Equal0~4_combout\ $end
$var wire 1 s! \inst|Add0~31\ $end
$var wire 1 t! \inst|Add0~32_combout\ $end
$var wire 1 u! \inst|Add0~33\ $end
$var wire 1 v! \inst|Add0~34_combout\ $end
$var wire 1 w! \inst|Add0~35\ $end
$var wire 1 x! \inst|Add0~36_combout\ $end
$var wire 1 y! \inst|Add0~37\ $end
$var wire 1 z! \inst|Add0~38_combout\ $end
$var wire 1 {! \inst|Add0~39\ $end
$var wire 1 |! \inst|Add0~40_combout\ $end
$var wire 1 }! \inst|Add0~41\ $end
$var wire 1 ~! \inst|Add0~42_combout\ $end
$var wire 1 !" \inst|Add0~43\ $end
$var wire 1 "" \inst|Add0~44_combout\ $end
$var wire 1 #" \inst|Add0~45\ $end
$var wire 1 $" \inst|Add0~46_combout\ $end
$var wire 1 %" \inst|Add0~47\ $end
$var wire 1 &" \inst|Add0~48_combout\ $end
$var wire 1 '" \inst|Add0~49\ $end
$var wire 1 (" \inst|Add0~50_combout\ $end
$var wire 1 )" \inst|Add0~51\ $end
$var wire 1 *" \inst|Add0~52_combout\ $end
$var wire 1 +" \inst|Add0~53\ $end
$var wire 1 ," \inst|Add0~54_combout\ $end
$var wire 1 -" \inst|Add0~55\ $end
$var wire 1 ." \inst|Add0~56_combout\ $end
$var wire 1 /" \inst|Add0~57\ $end
$var wire 1 0" \inst|Add0~58_combout\ $end
$var wire 1 1" \inst|Add0~59\ $end
$var wire 1 2" \inst|Add0~60_combout\ $end
$var wire 1 3" \inst|Add0~61\ $end
$var wire 1 4" \inst|Add0~62_combout\ $end
$var wire 1 5" \inst|Equal0~9_combout\ $end
$var wire 1 6" \inst|Equal0~8_combout\ $end
$var wire 1 7" \inst|Equal0~5_combout\ $end
$var wire 1 8" \inst|Equal0~6_combout\ $end
$var wire 1 9" \inst|Equal0~7_combout\ $end
$var wire 1 :" \inst|Equal0~10_combout\ $end
$var wire 1 ;" \inst|tmp~0_combout\ $end
$var wire 1 <" \inst|tmp~q\ $end
$var wire 1 =" \inst|comb~0_combout\ $end
$var wire 1 >" \inst|comb~0clkctrl_outclk\ $end
$var wire 1 ?" \inst|SCMS0|JKFF0|TQ~0_combout\ $end
$var wire 1 @" \PB1~input_o\ $end
$var wire 1 A" \inst|SCMS0|treset~0_combout\ $end
$var wire 1 B" \inst|SCMS0|treset~1_combout\ $end
$var wire 1 C" \inst|SCMS0|JKFF0|TQ~q\ $end
$var wire 1 D" \inst|SCMS0|JKFF1|TQ~0_combout\ $end
$var wire 1 E" \inst|SCMS0|JKFF1|TQ~q\ $end
$var wire 1 F" \inst|SCMS0|JKFF2|TQ~0_combout\ $end
$var wire 1 G" \inst|SCMS0|JKFF2|TQ~q\ $end
$var wire 1 H" \inst|SCMS0|JKFF3|TQ~0_combout\ $end
$var wire 1 I" \inst|SCMS0|JKFF3|TQ~feeder_combout\ $end
$var wire 1 J" \inst|SCMS0|JKFF3|TQ~q\ $end
$var wire 1 K" \inst|SCMS0|JKFF3|TQ~clkctrl_outclk\ $end
$var wire 1 L" \inst|SCMS1|JKFF0|TQ~0_combout\ $end
$var wire 1 M" \inst|SCMS1|JKFF1|TQ~0_combout\ $end
$var wire 1 N" \inst|SCMS1|JKFF1|TQ~q\ $end
$var wire 1 O" \inst|SCMS1|process_0~0_combout\ $end
$var wire 1 P" \inst|SCMS1|treset~0_combout\ $end
$var wire 1 Q" \inst|SCMS1|JKFF0|TQ~q\ $end
$var wire 1 R" \inst|SCMS1|JKFF2|TQ~0_combout\ $end
$var wire 1 S" \inst|SCMS1|JKFF2|TQ~q\ $end
$var wire 1 T" \inst|SCMS1|JKFF3|TQ~0_combout\ $end
$var wire 1 U" \inst|SCMS1|JKFF3|TQ~feeder_combout\ $end
$var wire 1 V" \inst|SCMS1|JKFF3|TQ~q\ $end
$var wire 1 W" \inst|SCMS1|JKFF3|TQ~clkctrl_outclk\ $end
$var wire 1 X" \inst|SCMS2|JKFF0|TQ~0_combout\ $end
$var wire 1 Y" \inst|SCMS2|JKFF1|TQ~0_combout\ $end
$var wire 1 Z" \inst|SCMS2|JKFF1|TQ~q\ $end
$var wire 1 [" \inst|SCMS2|process_0~0_combout\ $end
$var wire 1 \" \inst|SCMS2|treset~0_combout\ $end
$var wire 1 ]" \inst|SCMS2|JKFF0|TQ~q\ $end
$var wire 1 ^" \inst|SCMS2|JKFF2|TQ~0_combout\ $end
$var wire 1 _" \inst|SCMS2|JKFF2|TQ~q\ $end
$var wire 1 `" \inst|SCMS2|JKFF3|TQ~0_combout\ $end
$var wire 1 a" \inst|SCMS2|JKFF3|TQ~feeder_combout\ $end
$var wire 1 b" \inst|SCMS2|JKFF3|TQ~q\ $end
$var wire 1 c" \inst|SCMS2|JKFF3|TQ~clkctrl_outclk\ $end
$var wire 1 d" \inst|SCS0|JKFF0|TQ~0_combout\ $end
$var wire 1 e" \inst|SCS0|process_0~0_combout\ $end
$var wire 1 f" \inst|SCS0|treset~0_combout\ $end
$var wire 1 g" \inst|SCS0|JKFF0|TQ~q\ $end
$var wire 1 h" \inst|SCS0|JKFF1|TQ~0_combout\ $end
$var wire 1 i" \inst|SCS0|JKFF1|TQ~q\ $end
$var wire 1 j" \inst|SCS0|JKFF2|TQ~0_combout\ $end
$var wire 1 k" \inst|SCS0|JKFF2|TQ~q\ $end
$var wire 1 l" \inst|SCS0|JKFF3|TQ~0_combout\ $end
$var wire 1 m" \inst|SCS0|JKFF3|TQ~feeder_combout\ $end
$var wire 1 n" \inst|SCS0|JKFF3|TQ~q\ $end
$var wire 1 o" \inst|SCS0|JKFF3|TQ~clkctrl_outclk\ $end
$var wire 1 p" \inst|SCS1|JKFF0|TQ~0_combout\ $end
$var wire 1 q" \inst|SCS1|JKFF1|TQ~0_combout\ $end
$var wire 1 r" \inst|SCS1|JKFF1|TQ~q\ $end
$var wire 1 s" \inst|SCS1|JKFF3|TQ~0_combout\ $end
$var wire 1 t" \inst|SCS1|JKFF3|TQ~feeder_combout\ $end
$var wire 1 u" \inst|SCS1|JKFF3|TQ~q\ $end
$var wire 1 v" \inst|SCS1|treset~0_combout\ $end
$var wire 1 w" \inst|SCS1|treset~1_combout\ $end
$var wire 1 x" \inst|SCS1|JKFF0|TQ~q\ $end
$var wire 1 y" \inst|SCS1|JKFF2|TQ~0_combout\ $end
$var wire 1 z" \inst|SCS1|JKFF2|TQ~feeder_combout\ $end
$var wire 1 {" \inst|SCS1|JKFF2|TQ~q\ $end
$var wire 1 |" \inst|SCS1|JKFF2|TQ~clkctrl_outclk\ $end
$var wire 1 }" \inst|SCM|JKFF0|TQ~0_combout\ $end
$var wire 1 ~" \inst|SCM|JKFF1|TQ~0_combout\ $end
$var wire 1 !# \inst|SCM|JKFF1|TQ~q\ $end
$var wire 1 "# \inst|SCM|process_0~0_combout\ $end
$var wire 1 ## \inst|SCM|treset~0_combout\ $end
$var wire 1 $# \inst|SCM|JKFF0|TQ~q\ $end
$var wire 1 %# \inst|SCM|JKFF2|TQ~0_combout\ $end
$var wire 1 &# \inst|SCM|JKFF2|TQ~q\ $end
$var wire 1 '# \inst|SCM|JKFF3|TQ~0_combout\ $end
$var wire 1 (# \inst|SCM|JKFF3|TQ~q\ $end
$var wire 1 )# \inst|count\ [31] $end
$var wire 1 *# \inst|count\ [30] $end
$var wire 1 +# \inst|count\ [29] $end
$var wire 1 ,# \inst|count\ [28] $end
$var wire 1 -# \inst|count\ [27] $end
$var wire 1 .# \inst|count\ [26] $end
$var wire 1 /# \inst|count\ [25] $end
$var wire 1 0# \inst|count\ [24] $end
$var wire 1 1# \inst|count\ [23] $end
$var wire 1 2# \inst|count\ [22] $end
$var wire 1 3# \inst|count\ [21] $end
$var wire 1 4# \inst|count\ [20] $end
$var wire 1 5# \inst|count\ [19] $end
$var wire 1 6# \inst|count\ [18] $end
$var wire 1 7# \inst|count\ [17] $end
$var wire 1 8# \inst|count\ [16] $end
$var wire 1 9# \inst|count\ [15] $end
$var wire 1 :# \inst|count\ [14] $end
$var wire 1 ;# \inst|count\ [13] $end
$var wire 1 <# \inst|count\ [12] $end
$var wire 1 =# \inst|count\ [11] $end
$var wire 1 ># \inst|count\ [10] $end
$var wire 1 ?# \inst|count\ [9] $end
$var wire 1 @# \inst|count\ [8] $end
$var wire 1 A# \inst|count\ [7] $end
$var wire 1 B# \inst|count\ [6] $end
$var wire 1 C# \inst|count\ [5] $end
$var wire 1 D# \inst|count\ [4] $end
$var wire 1 E# \inst|count\ [3] $end
$var wire 1 F# \inst|count\ [2] $end
$var wire 1 G# \inst|count\ [1] $end
$var wire 1 H# \inst|count\ [0] $end
$var wire 1 I# \inst|SCS0|JKFF3|ALT_INV_TQ~clkctrl_outclk\ $end
$var wire 1 J# \inst|SCS1|JKFF2|ALT_INV_TQ~clkctrl_outclk\ $end
$var wire 1 K# \inst|SCMS1|JKFF3|ALT_INV_TQ~clkctrl_outclk\ $end
$var wire 1 L# \inst|SCMS0|JKFF3|ALT_INV_TQ~clkctrl_outclk\ $end
$var wire 1 M# \inst|SCMS2|JKFF3|ALT_INV_TQ~clkctrl_outclk\ $end
$var wire 1 N# \ALT_INV_PB0~input_o\ $end
$var wire 1 O# \inst|SCM|ALT_INV_treset~0_combout\ $end
$var wire 1 P# \inst|SCS1|ALT_INV_treset~1_combout\ $end
$var wire 1 Q# \inst|SCS0|ALT_INV_treset~0_combout\ $end
$var wire 1 R# \inst|SCMS2|ALT_INV_treset~0_combout\ $end
$var wire 1 S# \inst|SCMS1|ALT_INV_treset~0_combout\ $end
$var wire 1 T# \inst|SCMS0|ALT_INV_treset~1_combout\ $end
$upscope $end
$upscope $end
$enddefinitions $end
#0
$dumpvars
0!
0:
1;
0<
0=
1>
x?
1@
1A
1B
1C
1D
1E
0J
0K
1L
0M
0*!
0+!
z,!
z-!
z.!
0/!
00!
01!
02!
03!
04!
05!
06!
07!
08!
09!
0:!
0;!
0<!
0=!
0>!
0?!
0@!
0A!
0B!
0C!
0D!
0E!
0F!
0G!
1H!
1I!
0J!
0K!
0L!
0M!
0N!
1O!
1P!
0Q!
1R!
0S!
0T!
0U!
1V!
0W!
0X!
0Y!
1Z!
0[!
0\!
0]!
1^!
1_!
1`!
0a!
0b!
0c!
1d!
0e!
0f!
0g!
1h!
1i!
0j!
0k!
0l!
1m!
0n!
0o!
0p!
1q!
1r!
1s!
0t!
0u!
0v!
1w!
0x!
0y!
0z!
1{!
0|!
0}!
0~!
1!"
0""
0#"
0$"
1%"
0&"
0'"
0("
1)"
0*"
0+"
0,"
1-"
0."
0/"
00"
11"
02"
03"
04"
15"
16"
17"
18"
19"
1:"
1;"
0<"
0="
0>"
1?"
1@"
1A"
0B"
0C"
0D"
0E"
0F"
0G"
0H"
0I"
0J"
0K"
1L"
0M"
0N"
0O"
0P"
0Q"
0R"
0S"
0T"
0U"
0V"
0W"
1X"
0Y"
0Z"
0["
0\"
0]"
0^"
0_"
0`"
0a"
0b"
0c"
1d"
0e"
0f"
0g"
0h"
0i"
0j"
0k"
0l"
0m"
0n"
0o"
1p"
0q"
0r"
0s"
0t"
0u"
0v"
0w"
0x"
0y"
0z"
0{"
0|"
1}"
0~"
0!#
0"#
0##
0$#
0%#
0&#
0'#
0(#
1I#
1J#
1K#
1L#
1M#
1N#
1O#
1P#
1Q#
1R#
1S#
1T#
0F
0G
0H
0I
0N
0O
0P
0Q
0R
0S
0T
0U
0V
0W
0X
0Y
0Z
0[
0\
0]
0^
0_
0`
0a
0)#
0*#
0+#
0,#
0-#
0.#
0/#
00#
01#
02#
03#
04#
05#
06#
07#
08#
09#
0:#
0;#
0<#
0=#
0>#
0?#
0@#
0A#
0B#
0C#
0D#
0E#
0F#
0G#
0H#
1x
1y
1z
0{
1t
1u
1v
0w
1p
1q
1r
0s
1|
1}
1~
0!!
1l
1m
1n
0o
1&!
1'!
1(!
0)!
1"!
1#!
1$!
0%!
0b
0c
0d
0e
0f
0g
0h
0i
0j
0k
0"
0#
0$
0%
0&
0'
0(
0)
0*
0+
0,
0-
0.
0/
00
01
02
03
04
05
06
07
08
09
$end
#1500
1!
1J
1K!
1{
1<"
0;"
1="
1L!
1w
1>"
1C"
12!
0?"
0A"
1D"
1I
1%
#3000
0!
0J
0K!
0{
0L!
#4500
1!
1J
1K!
1{
0<"
1;"
0="
1L!
0w
0>"
#6000
0!
0J
0K!
0{
0L!
#7500
1!
1J
1K!
1{
1<"
0;"
1="
1L!
1w
1>"
0C"
1E"
11!
02!
1?"
1A"
1H
0I
0%
1$
#9000
0!
0J
0K!
0{
0L!
#10500
1!
1J
1K!
1{
0<"
1;"
0="
1L!
0w
0>"
#12000
0!
0J
0K!
0{
0L!
#13500
1!
1J
1K!
1{
1<"
0;"
1="
1L!
1w
1>"
1C"
12!
0?"
0A"
0D"
1F"
1I
1%
#15000
0!
0J
0K!
0{
0L!
#16500
1!
1J
1K!
1{
0<"
1;"
0="
1L!
0w
0>"
#18000
0!
0J
0K!
0{
0L!
#19500
1!
1J
1K!
1{
1<"
0;"
1="
1L!
1w
1>"
0C"
0E"
1G"
10!
01!
02!
1?"
1G
0H
0I
0%
0$
1#
#21000
0!
0J
0K!
0{
0L!
#22500
1!
1J
1K!
1{
0<"
1;"
0="
1L!
0w
0>"
#24000
0!
0J
0K!
0{
0L!
#25500
1!
1J
1K!
1{
1<"
0;"
1="
1L!
1w
1>"
1C"
12!
0?"
1D"
1I
1%
#27000
0!
0J
0K!
0{
0L!
#28500
1!
1J
1K!
1{
0<"
1;"
0="
1L!
0w
0>"
#30000
0!
0J
0K!
0{
0L!
#31500
1!
1J
1K!
1{
1<"
0;"
1="
1L!
1w
1>"
0C"
1E"
11!
02!
1?"
1H
0I
0%
1$
#33000
0!
0J
0K!
0{
0L!
#34500
1!
1J
1K!
1{
0<"
1;"
0="
1L!
0w
0>"
#36000
0!
0J
0K!
0{
0L!
#37500
1!
1J
1K!
1{
1<"
0;"
1="
1L!
1w
1>"
1C"
12!
0?"
0D"
0F"
1H"
1I
1I"
1%
#39000
0!
0J
0K!
0{
0L!
#40500
1!
1J
1K!
1{
0<"
1;"
0="
1L!
0w
0>"
#42000
0!
0J
0K!
0{
0L!
#43500
1!
1J
1K!
1{
1<"
0;"
1="
1L!
1w
1>"
0C"
0E"
0G"
1J"
1s
1/!
00!
01!
02!
1?"
1A"
1F
0G
0H
0I
0%
0$
0#
1"
1K"
0L#
#45000
0!
0J
0K!
0{
0L!
#46500
1!
1J
1K!
1{
0<"
1;"
0="
1L!
0w
0>"
#48000
0!
0J
0K!
0{
0L!
#49500
1!
1J
1K!
1{
1<"
0;"
1="
1L!
1w
1>"
1C"
12!
0?"
0A"
1D"
1I
1%
#51000
0!
0J
0K!
0{
0L!
#52500
1!
1J
1K!
1{
0<"
1;"
0="
1L!
0w
0>"
#54000
0!
0J
0K!
0{
0L!
#55500
1!
1J
1K!
1{
1<"
0;"
1="
1L!
1w
1>"
0C"
1E"
11!
02!
1?"
1A"
1H
0I
1B"
0%
1$
0T#
0E"
0J"
0s
0/!
01!
0B"
0D"
0H"
1T#
0F
0H
0I"
0$
0"
0K"
1L#
1Q"
16!
0L"
1M"
1Q
1)
#57000
0!
0J
0K!
0{
0L!
#58500
1!
1J
1K!
1{
0<"
1;"
0="
1L!
0w
0>"
#60000
0!
0J
0K!
0{
0L!
#61500
1!
1J
1K!
1{
1<"
0;"
1="
1L!
1w
1>"
1C"
12!
0?"
0A"
1D"
1I
1%
#63000
0!
0J
0K!
0{
0L!
#64500
1!
1J
1K!
1{
0<"
1;"
0="
1L!
0w
0>"
#66000
0!
0J
0K!
0{
0L!
#67500
1!
1J
1K!
1{
1<"
0;"
1="
1L!
1w
1>"
0C"
1E"
11!
02!
1?"
1A"
1H
0I
0%
1$
#69000
0!
0J
0K!
0{
0L!
#70500
1!
1J
1K!
1{
0<"
1;"
0="
1L!
0w
0>"
#72000
0!
0J
0K!
0{
0L!
#73500
1!
1J
1K!
1{
1<"
0;"
1="
1L!
1w
1>"
1C"
12!
0?"
0A"
0D"
1F"
1I
1%
#75000
0!
0J
0K!
0{
0L!
#76500
1!
1J
1K!
1{
0<"
1;"
0="
1L!
0w
0>"
#78000
0!
0J
0K!
0{
0L!
#79500
1!
1J
1K!
1{
1<"
0;"
1="
1L!
1w
1>"
0C"
0E"
1G"
10!
01!
02!
1?"
1G
0H
0I
0%
0$
1#
#81000
0!
0J
0K!
0{
0L!
#82500
1!
1J
1K!
1{
0<"
1;"
0="
1L!
0w
0>"
#84000
0!
0J
0K!
0{
0L!
#85500
1!
1J
1K!
1{
1<"
0;"
1="
1L!
1w
1>"
1C"
12!
0?"
1D"
1I
1%
#87000
0!
0J
0K!
0{
0L!
#88500
1!
1J
1K!
1{
0<"
1;"
0="
1L!
0w
0>"
#90000
0!
0J
0K!
0{
0L!
#91500
1!
1J
1K!
1{
1<"
0;"
1="
1L!
1w
1>"
0C"
1E"
11!
02!
1?"
1H
0I
0%
1$
#93000
0!
0J
0K!
0{
0L!
#94500
1!
1J
1K!
1{
0<"
1;"
0="
1L!
0w
0>"
#96000
0!
0J
0K!
0{
0L!
#97500
1!
1J
1K!
1{
1<"
0;"
1="
1L!
1w
1>"
1C"
12!
0?"
0D"
0F"
1H"
1I
1I"
1%
#99000
0!
0J
0K!
0{
0L!
#100500
1!
1J
1K!
1{
0<"
1;"
0="
1L!
0w
0>"
#102000
0!
0J
0K!
0{
0L!
#103500
1!
1J
1K!
1{
1<"
0;"
1="
1L!
1w
1>"
0C"
0E"
0G"
1J"
1s
1/!
00!
01!
02!
1?"
1A"
1F
0G
0H
0I
0%
0$
0#
1"
1K"
0L#
#105000
0!
0J
0K!
0{
0L!
#106500
1!
1J
1K!
1{
0<"
1;"
0="
1L!
0w
0>"
#108000
0!
0J
0K!
0{
0L!
#109500
1!
1J
1K!
1{
1<"
0;"
1="
1L!
1w
1>"
1C"
12!
0?"
0A"
1D"
1I
1%
#111000
0!
0J
0K!
0{
0L!
#112500
1!
1J
1K!
1{
0<"
1;"
0="
1L!
0w
0>"
#114000
0!
0J
0K!
0{
0L!
#115500
1!
1J
1K!
1{
1<"
0;"
1="
1L!
1w
1>"
0C"
1E"
11!
02!
1?"
1A"
1H
0I
1B"
0%
1$
0T#
0E"
0J"
0s
0/!
01!
0B"
0D"
0H"
1T#
0F
0H
0I"
0$
0"
0K"
1L#
1N"
0Q"
06!
15!
1L"
0Q
1P
0)
1(
#117000
0!
0J
0K!
0{
0L!
#118500
1!
1J
1K!
1{
0<"
1;"
0="
1L!
0w
0>"
#120000
0!
0J
0K!
0{
0L!
#121500
1!
1J
1K!
1{
1<"
0;"
1="
1L!
1w
1>"
1C"
12!
0?"
0A"
1D"
1I
1%
#123000
0!
0J
0K!
0{
0L!
#124500
1!
1J
1K!
1{
0<"
1;"
0="
1L!
0w
0>"
#126000
0!
0J
0K!
0{
0L!
#127500
1!
1J
1K!
1{
1<"
0;"
1="
1L!
1w
1>"
0C"
1E"
11!
02!
1?"
1A"
1H
0I
0%
1$
#129000
0!
0J
0K!
0{
0L!
#130500
1!
1J
1K!
1{
0<"
1;"
0="
1L!
0w
0>"
#132000
0!
0J
0K!
0{
0L!
#133500
1!
1J
1K!
1{
1<"
0;"
1="
1L!
1w
1>"
1C"
12!
0?"
0A"
0D"
1F"
1I
1%
#135000
0!
0J
0K!
0{
0L!
#136500
1!
1J
1K!
1{
0<"
1;"
0="
1L!
0w
0>"
#138000
0!
0J
0K!
0{
0L!
#139500
1!
1J
1K!
1{
1<"
0;"
1="
1L!
1w
1>"
0C"
0E"
1G"
10!
01!
02!
1?"
1G
0H
0I
0%
0$
1#
#141000
0!
0J
0K!
0{
0L!
#142500
1!
1J
1K!
1{
0<"
1;"
0="
1L!
0w
0>"
#144000
0!
0J
0K!
0{
0L!
