lab2.1/simulation/qsim/lab2.msim.vcd
$comment
	File created using the following command:
		vcd file lab2.msim.vcd -direction
$end
$date
	Thu Apr 25 15:18:03 2024
$end
$version
	ModelSim Version 10.5b
$end
$timescale
	1ps
$end

$scope module lab2_vhd_vec_tst $end
$var wire 1 ! aLCC $end
$var wire 1 " aLDC $end
$var wire 1 # aMCC $end
$var wire 1 $ aMDC $end
$var wire 1 % bLCC $end
$var wire 1 & bLDC $end
$var wire 1 ' bMCC $end
$var wire 1 ( bMDC $end
$var wire 1 ) cLCC $end
$var wire 1 * cLDC $end
$var wire 1 + clk $end
$var wire 1 , cMCC $end
$var wire 1 - cMDC $end
$var wire 1 . dLCC $end
$var wire 1 / dLDC $end
$var wire 1 0 dMCC $end
$var wire 1 1 dMDC $end
$var wire 1 2 eLCC $end
$var wire 1 3 eLDC $end
$var wire 1 4 eMCC $end
$var wire 1 5 eMDC $end
$var wire 1 6 fLCC $end
$var wire 1 7 fLDC $end
$var wire 1 8 fMCC $end
$var wire 1 9 fMDC $end
$var wire 1 : gLCC $end
$var wire 1 ; gLDC $end
$var wire 1 < gMCC $end
$var wire 1 = gMDC $end

$scope module i1 $end
$var wire 1 > gnd $end
$var wire 1 ? vcc $end
$var wire 1 @ unknown $end
$var wire 1 A devoe $end
$var wire 1 B devclrn $end
$var wire 1 C devpor $end
$var wire 1 D ww_devoe $end
$var wire 1 E ww_devclrn $end
$var wire 1 F ww_devpor $end
$var wire 1 G ww_aLCC $end
$var wire 1 H ww_clk $end
$var wire 1 I ww_bLCC $end
$var wire 1 J ww_cLCC $end
$var wire 1 K ww_dLCC $end
$var wire 1 L ww_eLCC $end
$var wire 1 M ww_fLCC $end
$var wire 1 N ww_gLCC $end
$var wire 1 O ww_aMCC $end
$var wire 1 P ww_bMCC $end
$var wire 1 Q ww_cMCC $end
$var wire 1 R ww_dMCC $end
$var wire 1 S ww_eMCC $end
$var wire 1 T ww_fMCC $end
$var wire 1 U ww_gMCC $end
$var wire 1 V ww_aLDC $end
$var wire 1 W ww_bLDC $end
$var wire 1 X ww_cLDC $end
$var wire 1 Y ww_dLDC $end
$var wire 1 Z ww_eLDC $end
$var wire 1 [ ww_fLDC $end
$var wire 1 \ ww_gLDC $end
$var wire 1 ] ww_aMDC $end
$var wire 1 ^ ww_bMDC $end
$var wire 1 _ ww_cMDC $end
$var wire 1 ` ww_dMDC $end
$var wire 1 a ww_eMDC $end
$var wire 1 b ww_fMDC $end
$var wire 1 c ww_gMDC $end
$var wire 1 d \~QUARTUS_CREATED_ADC1~_CHSEL_bus\ [4] $end
$var wire 1 e \~QUARTUS_CREATED_ADC1~_CHSEL_bus\ [3] $end
$var wire 1 f \~QUARTUS_CREATED_ADC1~_CHSEL_bus\ [2] $end
$var wire 1 g \~QUARTUS_CREATED_ADC1~_CHSEL_bus\ [1] $end
$var wire 1 h \~QUARTUS_CREATED_ADC1~_CHSEL_bus\ [0] $end
$var wire 1 i \~QUARTUS_CREATED_ADC2~_CHSEL_bus\ [4] $end
$var wire 1 j \~QUARTUS_CREATED_ADC2~_CHSEL_bus\ [3] $end
$var wire 1 k \~QUARTUS_CREATED_ADC2~_CHSEL_bus\ [2] $end
$var wire 1 l \~QUARTUS_CREATED_ADC2~_CHSEL_bus\ [1] $end
$var wire 1 m \~QUARTUS_CREATED_ADC2~_CHSEL_bus\ [0] $end
$var wire 1 n \inst5|inst2~clkctrl_INCLK_bus\ [3] $end
$var wire 1 o \inst5|inst2~clkctrl_INCLK_bus\ [2] $end
$var wire 1 p \inst5|inst2~clkctrl_INCLK_bus\ [1] $end
$var wire 1 q \inst5|inst2~clkctrl_INCLK_bus\ [0] $end
$var wire 1 r \inst4|inst2~clkctrl_INCLK_bus\ [3] $end
$var wire 1 s \inst4|inst2~clkctrl_INCLK_bus\ [2] $end
$var wire 1 t \inst4|inst2~clkctrl_INCLK_bus\ [1] $end
$var wire 1 u \inst4|inst2~clkctrl_INCLK_bus\ [0] $end
$var wire 1 v \clk~inputclkctrl_INCLK_bus\ [3] $end
$var wire 1 w \clk~inputclkctrl_INCLK_bus\ [2] $end
$var wire 1 x \clk~inputclkctrl_INCLK_bus\ [1] $end
$var wire 1 y \clk~inputclkctrl_INCLK_bus\ [0] $end
$var wire 1 z \~QUARTUS_CREATED_GND~I_combout\ $end
$var wire 1 { \~QUARTUS_CREATED_UNVM~~busy\ $end
$var wire 1 | \~QUARTUS_CREATED_ADC1~~eoc\ $end
$var wire 1 } \~QUARTUS_CREATED_ADC2~~eoc\ $end
$var wire 1 ~ \aLCC~output_o\ $end
$var wire 1 !! \bLCC~output_o\ $end
$var wire 1 "! \cLCC~output_o\ $end
$var wire 1 #! \dLCC~output_o\ $end
$var wire 1 $! \eLCC~output_o\ $end
$var wire 1 %! \fLCC~output_o\ $end
$var wire 1 &! \gLCC~output_o\ $end
$var wire 1 '! \aMCC~output_o\ $end
$var wire 1 (! \bMCC~output_o\ $end
$var wire 1 )! \cMCC~output_o\ $end
$var wire 1 *! \dMCC~output_o\ $end
$var wire 1 +! \eMCC~output_o\ $end
$var wire 1 ,! \fMCC~output_o\ $end
$var wire 1 -! \gMCC~output_o\ $end
$var wire 1 .! \aLDC~output_o\ $end
$var wire 1 /! \bLDC~output_o\ $end
$var wire 1 0! \cLDC~output_o\ $end
$var wire 1 1! \dLDC~output_o\ $end
$var wire 1 2! \eLDC~output_o\ $end
$var wire 1 3! \fLDC~output_o\ $end
$var wire 1 4! \gLDC~output_o\ $end
$var wire 1 5! \aMDC~output_o\ $end
$var wire 1 6! \bMDC~output_o\ $end
$var wire 1 7! \cMDC~output_o\ $end
$var wire 1 8! \dMDC~output_o\ $end
$var wire 1 9! \eMDC~output_o\ $end
$var wire 1 :! \fMDC~output_o\ $end
$var wire 1 ;! \gMDC~output_o\ $end
$var wire 1 <! \clk~input_o\ $end
$var wire 1 =! \clk~inputclkctrl_outclk\ $end
$var wire 1 >! \inst|inst~0_combout\ $end
$var wire 1 ?! \inst|inst~feeder_combout\ $end
$var wire 1 @! \inst9|e~1_combout\ $end
$var wire 1 A! \inst|inst~q\ $end
$var wire 1 B! \inst|inst1~0_combout\ $end
$var wire 1 C! \inst|inst1~feeder_combout\ $end
$var wire 1 D! \inst|inst1~q\ $end
$var wire 1 E! \inst|inst2~0_combout\ $end
$var wire 1 F! \inst|inst2~feeder_combout\ $end
$var wire 1 G! \inst|inst2~q\ $end
$var wire 1 H! \inst|inst3~0_combout\ $end
$var wire 1 I! \inst|inst3~feeder_combout\ $end
$var wire 1 J! \inst|inst3~q\ $end
$var wire 1 K! \inst9|a~0_combout\ $end
$var wire 1 L! \inst9|b~0_combout\ $end
$var wire 1 M! \inst9|c~0_combout\ $end
$var wire 1 N! \inst9|d~combout\ $end
$var wire 1 O! \inst9|e~0_combout\ $end
$var wire 1 P! \inst9|f~0_combout\ $end
$var wire 1 Q! \inst9|g~0_combout\ $end
$var wire 1 R! \inst3|inst~0_combout\ $end
$var wire 1 S! \inst3|inst~feeder_combout\ $end
$var wire 1 T! \inst3|inst2~0_combout\ $end
$var wire 1 U! \inst3|inst2~feeder_combout\ $end
$var wire 1 V! \inst3|inst2~q\ $end
$var wire 1 W! \inst3|inst3~0_combout\ $end
$var wire 1 X! \inst3|inst3~q\ $end
$var wire 1 Y! \inst3|ANDN1~0_combout\ $end
$var wire 1 Z! \inst3|inst~q\ $end
$var wire 1 [! \inst3|inst1~0_combout\ $end
$var wire 1 \! \inst3|inst1~feeder_combout\ $end
$var wire 1 ]! \inst3|inst1~q\ $end
$var wire 1 ^! \inst8|a~0_combout\ $end
$var wire 1 _! \inst8|b~0_combout\ $end
$var wire 1 `! \inst8|c~0_combout\ $end
$var wire 1 a! \inst8|d~combout\ $end
$var wire 1 b! \inst8|e~0_combout\ $end
$var wire 1 c! \inst8|f~0_combout\ $end
$var wire 1 d! \inst8|g~0_combout\ $end
$var wire 1 e! \inst4|inst~0_combout\ $end
$var wire 1 f! \inst4|inst~feeder_combout\ $end
$var wire 1 g! \inst4|inst2~0_combout\ $end
$var wire 1 h! \inst4|inst2~q\ $end
$var wire 1 i! \inst4|inst2~clkctrl_outclk\ $end
$var wire 1 j! \inst4|inst3~0_combout\ $end
$var wire 1 k! \inst4|inst3~feeder_combout\ $end
$var wire 1 l! \inst4|inst3~q\ $end
$var wire 1 m! \inst4|inst4~q\ $end
$var wire 1 n! \inst4|inst17~combout\ $end
$var wire 1 o! \inst4|inst~q\ $end
$var wire 1 p! \inst4|inst1~0_combout\ $end
$var wire 1 q! \inst4|inst1~feeder_combout\ $end
$var wire 1 r! \inst4|inst1~q\ $end
$var wire 1 s! \inst7|a~0_combout\ $end
$var wire 1 t! \inst7|b~0_combout\ $end
$var wire 1 u! \inst7|c~0_combout\ $end
$var wire 1 v! \inst7|d~combout\ $end
$var wire 1 w! \inst7|e~0_combout\ $end
$var wire 1 x! \inst7|f~0_combout\ $end
$var wire 1 y! \inst7|g~0_combout\ $end
$var wire 1 z! \inst5|inst~0_combout\ $end
$var wire 1 {! \inst5|inst~feeder_combout\ $end
$var wire 1 |! \inst5|inst4~q\ $end
$var wire 1 }! \inst5|inst17~combout\ $end
$var wire 1 ~! \inst5|inst~q\ $end
$var wire 1 !" \inst5|inst1~0_combout\ $end
$var wire 1 "" \inst5|inst1~q\ $end
$var wire 1 #" \inst5|inst2~0_combout\ $end
$var wire 1 $" \inst5|inst2~q\ $end
$var wire 1 %" \inst5|inst2~clkctrl_outclk\ $end
$var wire 1 &" \inst5|inst3~0_combout\ $end
$var wire 1 '" \inst5|inst3~q\ $end
$var wire 1 (" \inst6|a~0_combout\ $end
$var wire 1 )" \inst6|b~0_combout\ $end
$var wire 1 *" \inst6|c~0_combout\ $end
$var wire 1 +" \inst6|d~combout\ $end
$var wire 1 ," \inst6|e~0_combout\ $end
$var wire 1 -" \inst6|f~0_combout\ $end
$var wire 1 ." \inst6|g~0_combout\ $end
$var wire 1 /" \inst9|ALT_INV_c~0_combout\ $end
$var wire 1 0" \inst9|ALT_INV_b~0_combout\ $end
$var wire 1 1" \inst9|ALT_INV_a~0_combout\ $end
$var wire 1 2" \inst|ALT_INV_inst~q\ $end
$var wire 1 3" \inst|ALT_INV_inst3~q\ $end
$var wire 1 4" \inst|ALT_INV_inst2~q\ $end
$var wire 1 5" \inst|ALT_INV_inst1~q\ $end
$var wire 1 6" \inst5|ALT_INV_inst17~combout\ $end
$var wire 1 7" \inst4|ALT_INV_inst17~combout\ $end
$var wire 1 8" \inst3|ALT_INV_ANDN1~0_combout\ $end
$var wire 1 9" \inst9|ALT_INV_e~1_combout\ $end
$var wire 1 :" \inst6|ALT_INV_g~0_combout\ $end
$var wire 1 ;" \inst6|ALT_INV_f~0_combout\ $end
$var wire 1 <" \inst6|ALT_INV_e~0_combout\ $end
$var wire 1 =" \inst6|ALT_INV_c~0_combout\ $end
$var wire 1 >" \inst6|ALT_INV_b~0_combout\ $end
$var wire 1 ?" \inst6|ALT_INV_a~0_combout\ $end
$var wire 1 @" \inst5|ALT_INV_inst~q\ $end
$var wire 1 A" \inst7|ALT_INV_g~0_combout\ $end
$var wire 1 B" \inst7|ALT_INV_f~0_combout\ $end
$var wire 1 C" \inst7|ALT_INV_e~0_combout\ $end
$var wire 1 D" \inst7|ALT_INV_c~0_combout\ $end
$var wire 1 E" \inst7|ALT_INV_b~0_combout\ $end
$var wire 1 F" \inst7|ALT_INV_a~0_combout\ $end
$var wire 1 G" \inst4|ALT_INV_inst3~q\ $end
$var wire 1 H" \inst4|ALT_INV_inst~q\ $end
$var wire 1 I" \inst8|ALT_INV_g~0_combout\ $end
$var wire 1 J" \inst8|ALT_INV_f~0_combout\ $end
$var wire 1 K" \inst8|ALT_INV_e~0_combout\ $end
$var wire 1 L" \inst8|ALT_INV_c~0_combout\ $end
$var wire 1 M" \inst8|ALT_INV_b~0_combout\ $end
$var wire 1 N" \inst8|ALT_INV_a~0_combout\ $end
$var wire 1 O" \inst3|ALT_INV_inst~q\ $end
$var wire 1 P" \inst3|ALT_INV_inst2~q\ $end
$var wire 1 Q" \inst3|ALT_INV_inst1~q\ $end
$var wire 1 R" \inst9|ALT_INV_g~0_combout\ $end
$var wire 1 S" \inst9|ALT_INV_f~0_combout\ $end
$var wire 1 T" \inst9|ALT_INV_e~0_combout\ $end
$upscope $end
$upscope $end
$enddefinitions $end
#0
$dumpvars
0!
0"
0#
0$
0%
0&
0'
0(
0)
0*
0+
0,
0-
0.
0/
00
01
02
13
04
15
06
07
08
09
1:
0;
1<
0=
0>
1?
x@
1A
1B
1C
1D
1E
1F
0G
0H
0I
0J
0K
0L
0M
1N
0O
0P
0Q
0R
0S
0T
1U
0V
0W
0X
0Y
1Z
0[
0\
0]
0^
0_
0`
1a
0b
0c
0z
z{
z|
z}
0~
0!!
0"!
0#!
0$!
0%!
1&!
0'!
0(!
0)!
0*!
0+!
0,!
1-!
0.!
0/!
00!
01!
12!
03!
04!
05!
06!
07!
08!
19!
0:!
0;!
0<!
0=!
1>!
1?!
0@!
0A!
1B!
1C!
0D!
1E!
1F!
0G!
1H!
1I!
0J!
1K!
1L!
1M!
0N!
1O!
1P!
0Q!
1R!
1S!
1T!
1U!
0V!
1W!
0X!
0Y!
0Z!
1[!
1\!
0]!
1^!
1_!
1`!
0a!
1b!
1c!
0d!
1e!
1f!
1g!
0h!
0i!
1j!
1k!
0l!
0m!
0n!
0o!
1p!
1q!
0r!
1s!
1t!
1u!
0v!
0w!
1x!
1y!
1z!
1{!
0|!
0}!
0~!
1!"
0""
1#"
0$"
0%"
1&"
0'"
1("
1)"
1*"
0+"
0,"
1-"
1."
0/"
00"
01"
12"
13"
14"
15"
16"
17"
18"
19"
0:"
0;"
1<"
0="
0>"
0?"
1@"
0A"
0B"
1C"
0D"
0E"
0F"
1G"
1H"
1I"
0J"
0K"
0L"
0M"
0N"
1O"
1P"
1Q"
1R"
0S"
0T"
1v
1w
1x
0y
1r
1s
1t
0u
1n
1o
1p
0q
0d
0e
0f
0g
0h
0i
0j
0k
0l
0m
$end
#10000
1+
1H
1<!
1y
1=!
1A!
1o!
0H"
02"
0e!
1w!
0>!
0K!
1N!
0O!
0P!
1S"
1T"
11"
0C"
1#!
0?!
0f!
02!
1~
1$!
1%!
1K
0Z
1G
1L
1M
1.
03
1!
12
16
#20000
0+
0H
0<!
0y
0=!
#30000
1+
1H
1<!
1y
1=!
0A!
0o!
1H"
12"
1e!
0w!
1>!
1K!
0N!
1O!
1P!
1D!
1r!
0S"
0T"
01"
1C"
0#!
1?!
1f!
05"
12!
0~
0$!
0%!
1h!
0p!
0s!
0t!
1w!
0B!
0M!
0P!
1Q!
0K
0R"
1S"
1/"
0C"
1E"
1F"
1Z
0G
0L
0M
1u
0.
0C!
0q!
0g!
1s!
0u!
1v!
13
0!
02
06
1.!
1/!
02!
1"!
1%!
0&!
1D"
0F"
11!
1V
1W
0Z
1J
1M
0N
0.!
10!
1i!
1Y
1"
1&
03
1)
16
0:
0V
1X
1/
1l!
0"
1*
0G"
0j!
1t!
1u!
0w!
0x!
0y!
1A"
1B"
1C"
0D"
0E"
0k!
0/!
00!
12!
13!
14!
0W
0X
1Z
1[
1\
0&
0*
13
17
1;
#40000
0+
0H
0<!
0y
0=!
#50000
1+
1H
1<!
1y
1=!
1A!
1o!
0H"
02"
0e!
0t!
0v!
1w!
1x!
1y!
0>!
1M!
0O!
1T"
0/"
0A"
0B"
0C"
1E"
01!
0?!
0f!
1/!
02!
03!
04!
0"!
1$!
0Y
1W
0Z
0[
0\
0J
1L
0/
1&
03
07
0;
0)
12
#60000
0+
0H
0<!
0y
0=!
#70000
1+
1H
1<!
1y
1=!
0A!
0o!
1H"
12"
1e!
1t!
1v!
0w!
0x!
0y!
1>!
0M!
1O!
0D!
0r!
0T"
1/"
1A"
1B"
1C"
0E"
11!
1?!
1f!
15"
0/!
12!
13!
14!
1"!
0$!
1p!
0t!
0v!
1x!
1y!
1B!
1M!
1P!
0Q!
1Y
1G!
1R"
0S"
0/"
0A"
0B"
1E"
0W
1Z
1[
1\
1J
0L
1/
01!
1C!
1q!
04"
0&
13
17
1;
1)
02
1/!
03!
04!
0"!
0%!
1&!
0E!
0K!
1N!
0O!
1Q!
0Y
0R"
1T"
11"
1W
0[
0\
0J
0M
1N
0/
1#!
0F!
1&
07
0;
0)
06
1:
1~
1$!
0&!
1K
1G
1L
0N
1.
1!
12
0:
#80000
0+
0H
0<!
0y
0=!
#90000
1+
1H
1<!
1y
1=!
1A!
1o!
0H"
02"
0e!
0s!
1t!
1v!
0>!
1K!
0L!
0N!
10"
01"
0E"
1F"
0#!
11!
0?!
0f!
1.!
0/!
0~
1!!
0K
1Y
1V
0W
0G
1I
0.
1/
1"
0&
0!
1%
#100000
0+
0H
0<!
0y
0=!
#110000
1+
1H
1<!
1y
1=!
0A!
0o!
1H"
12"
1e!
1s!
0t!
0v!
1>!
0K!
1L!
1N!
1D!
1r!
00"
11"
1E"
0F"
1#!
01!
1?!
1f!
05"
0.!
1/!
1~
0!!
0h!
0p!
1t!
1v!
0x!
0y!
0B!
1K!
0L!
0N!
1O!
1K
0Y
0T"
10"
01"
1A"
1B"
0E"
0V
1W
1G
0I
0u
1.
0/
0#!
11!
0C!
0q!
1g!
0v!
1y!
0"
1&
1!
0%
0/!
13!
14!
0~
1!!
0$!
0A"
0K
1Y
01!
0W
1[
1\
0G
1I
0L
0.
1/
04!
0i!
0Y
0&
17
1;
0!
1%
02
0\
0/
0;
#120000
0+
0H
0<!
0y
0=!
#130000
1+
1H
1<!
1y
1=!
1A!
1o!
0H"
02"
0e!
0u!
1w!
0>!
1L!
1N!
0O!
0P!
0Q!
1R"
1S"
1T"
00"
0C"
1D"
1#!
0?!
0f!
10!
02!
0!!
1$!
1%!
1&!
1K
1X
0Z
0I
1L
1M
1N
1.
1*
03
0%
12
16
1:
#140000
0+
0H
0<!
0y
0=!
#150000
1+
1H
1<!
1y
1=!
0A!
0o!
1H"
12"
1e!
1u!
0w!
1>!
0L!
0N!
1O!
1P!
1Q!
0D!
0r!
0R"
0S"
0T"
10"
1C"
0D"
0#!
1?!
1f!
15"
00!
12!
1!!
0$!
0%!
0&!
1p!
0s!
1v!
0y!
1B!
0K!
1L!
1N!
0O!
0K
0G!
1T"
00"
11"
1A"
1F"
0X
1Z
1I
0L
0M
0N
0.
1#!
11!
1C!
1q!
14"
0*
13
1%
02
06
0:
1.!
14!
1~
0!!
1$!
1E!
1K!
0N!
1O!
0Q!
1K
1Y
1J!
1R"
0T"
01"
1V
1\
1G
0I
1L
1.
1/
0#!
1F!
03"
1"
1;
1!
0%
12
0~
0$!
1&!
0H!
1Q!
0K
0R"
0G
0L
1N
0.
0I!
0!
02
1:
0&!
0N
0:
#160000
0+
0H
0<!
0y
0=!
#170000
1+
1H
1<!
1y
1=!
1A!
1o!
0H"
02"
0e!
1s!
0v!
1w!
1x!
0>!
0O!
1T"
0B"
0C"
0F"
01!
0?!
0f!
0.!
02!
03!
1$!
0Y
0V
0Z
0[
1L
0/
0"
03
07
12
#180000
0+
0H
0<!
0y
0=!
#190000
1+
1H
1<!
1y
1=!
0A!
0o!
1H"
12"
1e!
0s!
1v!
0w!
0x!
1>!
1O!
1D!
1r!
0T"
1B"
1C"
1F"
11!
1?!
1f!
05"
1.!
12!
13!
0$!
1h!
0p!
1s!
0v!
1y!
1@!
0B!
1N!
1Y
09"
0A"
0F"
1V
1Z
1[
0L
1u
1/
1#!
01!
0C!
0q!
0g!
1v!
0y!
1"
13
17
02
0.!
04!
0D!
0J!
1A"
1K
0Y
11!
13"
15"
0V
0\
1.
0/
14!
1i!
1H!
0@!
1B!
0N!
0Q!
1Y
0"
0;
1Z!
1R"
19"
1\
1/
0#!
1C!
1I!
0l!
1m!
0O"
1;
1&!
0R!
0^!
1a!
0b!
0c!
1G"
0K
1n!
1j!
0t!
0u!
1w!
1x!
1y!
1J"
1K"
1N"
1N
0.
1*!
1~!
0S!
0A"
0B"
0C"
1D"
1E"
07"
1:
1'!
1+!
1,!
1k!
0@"
1R
1/!
10!
02!
03!
04!
0h!
0m!
0r!
0z!
1,"
1O
1S
1T
10
0<"
1W
1X
0Z
0[
0\
0u
1#
14
18
0{!
1p!
1g!
0n!
1t!
1u!
0v!
0w!
1&
1*
03
07
0;
09!
1C"
0D"
0E"
17"
01!
1q!
0a
0/!
00!
12!
0i!
0Y
05
0W
0X
1Z
0/
0&
0*
13
#200000
0+
0H
0<!
0y
0=!
#210000
1+
1H
1<!
1y
1=!
1A!
1o!
0H"
02"
0e!
1w!
0>!
0K!
1N!
0O!
0P!
1S"
1T"
11"
0C"
1#!
0?!
0f!
02!
1~
1$!
1%!
1K
0Z
1G
1L
1M
1.
03
1!
12
16
#220000
0+
0H
0<!
0y
0=!
#230000
1+
1H
1<!
1y
1=!
0A!
0o!
1H"
12"
1e!
0w!
1>!
1K!
0N!
1O!
1P!
1D!
1r!
0S"
0T"
01"
1C"
0#!
1?!
1f!
05"
12!
0~
0$!
0%!
1h!
0p!
0s!
0t!
1w!
0B!
0M!
0P!
1Q!
0K
0R"
1S"
1/"
0C"
1E"
1F"
1Z
0G
0L
0M
1u
0.
0C!
0q!
0g!
1s!
0u!
1v!
13
0!
02
06
1.!
1/!
02!
1"!
1%!
0&!
1D"
0F"
11!
1V
1W
0Z
1J
1M
0N
0.!
10!
1i!
1Y
1"
1&
03
1)
16
0:
0V
1X
1/
1l!
0"
1*
0G"
0j!
1t!
1u!
0w!
0x!
0y!
1A"
1B"
1C"
0D"
0E"
0k!
0/!
00!
12!
13!
14!
0W
0X
1Z
1[
1\
0&
0*
13
17
1;
#240000
0+
0H
0<!
0y
0=!
#250000
1+
1H
1<!
1y
1=!
1A!
1o!
0H"
02"
0e!
0t!
0v!
1w!
1x!
1y!
0>!
1M!
0O!
1T"
0/"
0A"
0B"
0C"
1E"
01!
0?!
0f!
1/!
02!
03!
04!
0"!
1$!
0Y
1W
0Z
0[
0\
0J
1L
0/
1&
03
07
0;
0)
12
#260000
0+
0H
0<!
0y
0=!
#270000
1+
1H
1<!
1y
1=!
0A!
0o!
1H"
12"
1e!
1t!
1v!
0w!
0x!
0y!
1>!
0M!
1O!
0D!
0r!
0T"
1/"
1A"
1B"
1C"
0E"
11!
1?!
1f!
15"
0/!
12!
13!
14!
1"!
0$!
1p!
0t!
0v!
1x!
1y!
1B!
1M!
1P!
0Q!
1Y
1G!
1R"
0S"
0/"
0A"
0B"
1E"
0W
1Z
1[
1\
1J
0L
1/
01!
1C!
1q!
04"
0&
13
17
1;
1)
02
1/!
03!
04!
0"!
0%!
1&!
0E!
0K!
1N!
0O!
1Q!
0Y
0R"
1T"
11"
1W
0[
0\
0J
0M
1N
0/
1#!
0F!
1&
07
0;
0)
06
1:
1~
1$!
0&!
1K
1G
1L
0N
1.
1!
12
0:
#280000
0+
0H
0<!
0y
0=!
#290000
1+
1H
1<!
1y
1=!
1A!
1o!
0H"
02"
0e!
0s!
1t!
1v!
0>!
1K!
0L!
0N!
10"
01"
0E"
1F"
0#!
11!
0?!
0f!
1.!
0/!
0~
1!!
0K
1Y
1V
0W
0G
1I
0.
1/
1"
0&
0!
1%
#300000
0+
0H
0<!
0y
0=!
#310000
1+
1H
1<!
1y
1=!
0A!
0o!
1H"
12"
1e!
1s!
0t!
0v!
1>!
0K!
1L!
1N!
1D!
1r!
00"
11"
1E"
0F"
1#!
01!
1?!
1f!
05"
0.!
1/!
1~
0!!
0h!
0p!
1t!
1v!
0x!
0y!
0B!
1K!
0L!
0N!
1O!
1K
0Y
0T"
10"
01"
1A"
1B"
0E"
0V
1W
1G
0I
0u
1.
0/
0#!
11!
0C!
0q!
1g!
0v!
1y!
0"
1&
1!
0%
0/!
13!
14!
0~
1!!
0$!
0A"
0K
1Y
01!
0W
1[
1\
0G
1I
0L
0.
1/
04!
0i!
0Y
0&
17
1;
0!
1%
02
0\
0/
0;
#320000
0+
0H
0<!
0y
0=!
#330000
1+
1H
1<!
1y
1=!
1A!
1o!
0H"
02"
0e!
0u!
1w!
0>!
1L!
1N!
0O!
0P!
0Q!
1R"
1S"
1T"
00"
0C"
1D"
1#!
0?!
0f!
10!
02!
0!!
1$!
1%!
1&!
1K
1X
0Z
0I
1L
1M
1N
1.
1*
03
0%
12
16
1:
#340000
0+
0H
0<!
0y
0=!
#350000
1+
1H
1<!
1y
1=!
0A!
0o!
1H"
12"
1e!
1u!
0w!
1>!
0L!
0N!
1O!
1P!
1Q!
0D!
0r!
0R"
0S"
0T"
10"
1C"
0D"
0#!
1?!
1f!
15"
00!
12!
1!!
0$!
0%!
0&!
1p!
0s!
1v!
0y!
1B!
0K!
1L!
1N!
0O!
0K
0G!
1T"
00"
11"
1A"
1F"
0X
1Z
1I
0L
0M
0N
0.
1#!
11!
1C!
1q!
14"
0*
13
1%
02
06
0:
1.!
14!
1~
0!!
1$!
1E!
1K!
0N!
1O!
0Q!
1K
1Y
1J!
1R"
0T"
01"
1V
1\
1G
0I
1L
1.
1/
0#!
1F!
03"
1"
1;
1!
0%
12
0~
0$!
1&!
0H!
1Q!
0K
0R"
0G
0L
1N
0.
0I!
0!
02
1:
0&!
0N
0:
#360000
0+
0H
0<!
0y
0=!
#370000
1+
1H
1<!
1y
1=!
1A!
1o!
0H"
02"
0e!
1s!
0v!
1w!
1x!
0>!
0O!
1T"
0B"
0C"
0F"
01!
0?!
0f!
0.!
02!
03!
1$!
0Y
0V
0Z
0[
1L
0/
0"
03
07
12
#380000
0+
0H
0<!
0y
0=!
#390000
1+
1H
1<!
1y
1=!
0A!
0o!
1H"
12"
1e!
0s!
1v!
0w!
0x!
1>!
1O!
1D!
1r!
0T"
1B"
1C"
1F"
11!
1?!
1f!
05"
1.!
12!
13!
0$!
1h!
0p!
1s!
0v!
1y!
1@!
0B!
1N!
1Y
09"
0A"
0F"
1V
1Z
1[
0L
1u
1/
1#!
01!
0C!
0q!
0g!
1v!
0y!
1"
13
17
02
0.!
04!
0D!
0J!
1A"
1K
0Y
11!
13"
15"
0V
0\
1.
0/
14!
1i!
1H!
0@!
1B!
0N!
0Q!
1Y
0"
0;
0Z!
1R"
19"
1\
1/
0#!
1C!
1I!
0l!
1m!
1O"
1;
1&!
1R!
1^!
0a!
1b!
1c!
1G"
0K
1]!
1n!
1j!
0t!
0u!
1w!
1x!
1y!
0J"
0K"
0N"
1N
0.
0*!
0~!
1S!
0A"
0B"
0C"
1D"
1E"
07"
0Q"
1:
0'!
0+!
0,!
1k!
0[!
0`!
0c!
1d!
1@"
0R
1/!
10!
02!
03!
04!
0h!
0m!
0r!
1z!
0,"
0I"
1J"
1L"
0O
0S
0T
00
1""
0\!
1<"
1W
1X
0Z
0[
0\
0u
0#
04
08
1)!
1,!
0-!
1{!
1p!
1g!
0n!
1t!
1u!
0v!
0w!
1&
1*
03
07
0;
19!
0!"
1$"
0("
0)"
1,"
1C"
0D"
0E"
17"
1Q
1T
0U
01!
1q!
0<"
1>"
1?"
1a
1q
1,
18
0<
0/!
00!
12!
0i!
0#"
1("
0*"
1+"
0Y
15
15!
16!
09!
1="
0?"
0W
0X
1Z
0/
18!
1]
1^
0a
0&
0*
13
05!
17!
1%"
1`
1$
1(
05
0]
1_
11
1'"
0$
1-
0&"
1)"
1*"
0,"
0-"
0."
1:"
1;"
1<"
0="
0>"
06!
07!
19!
1:!
1;!
0^
0_
1a
1b
1c
0(
0-
15
19
1=
#400000
0+
0H
0<!
0y
0=!
#410000
1+
1H
1<!
1y
1=!
1A!
1o!
0H"
02"
0e!
1w!
0>!
0K!
1N!
0O!
0P!
1S"
1T"
11"
0C"
1#!
0?!
0f!
02!
1~
1$!
1%!
1K
0Z
1G
1L
1M
1.
03
1!
12
16
#420000
0+
0H
0<!
0y
0=!
#430000
1+
1H
1<!
1y
1=!
0A!
0o!
1H"
12"
1e!
0w!
1>!
1K!
0N!
1O!
1P!
1D!
1r!
0S"
0T"
01"
1C"
0#!
1?!
1f!
05"
12!
0~
0$!
0%!
1h!
0p!
0s!
0t!
1w!
0B!
0M!
0P!
1Q!
0K
0R"
1S"
1/"
0C"
1E"
1F"
1Z
0G
0L
0M
1u
0.
0C!
0q!
0g!
1s!
0u!
1v!
13
0!
02
06
1.!
1/!
02!
1"!
1%!
0&!
1D"
0F"
11!
1V
1W
0Z
1J
1M
0N
0.!
10!
1i!
1Y
1"
1&
03
1)
16
0:
0V
1X
1/
1l!
0"
1*
0G"
0j!
1t!
1u!
0w!
0x!
0y!
1A"
1B"
1C"
0D"
0E"
0k!
0/!
00!
12!
13!
14!
0W
0X
1Z
1[
1\
0&
0*
13
17
1;
#440000
0+
0H
0<!
0y
0=!
#450000
1+
1H
1<!
1y
1=!
1A!
1o!
0H"
02"
0e!
0t!
0v!
1w!
1x!
1y!
0>!
1M!
0O!
1T"
0/"
0A"
0B"
0C"
1E"
01!
0?!
0f!
1/!
02!
03!
04!
0"!
1$!
0Y
1W
0Z
0[
0\
0J
1L
0/
1&
03
07
0;
0)
12
#460000
0+
0H
0<!
0y
0=!
